(['main.py'],
 ['I:\\Daten\\Studium\\Master\\Masterarbeit\\code\\pylistory',
  'I:\\Daten\\Studium\\Master\\Masterarbeit\\code\\pylistory'],
 ['codecs'],
 ['c:\\users\\manu\\venv\\lib\\site-packages\\pygame_menu\\__pyinstaller',
  'C:\\Users\\Manu\\AppData\\Local\\Programs\\Python\\Python39\\lib\\site-packages\\_pyinstaller_hooks_contrib\\hooks\\stdhooks',
  'C:\\Users\\Manu\\AppData\\Local\\Programs\\Python\\Python39\\lib\\site-packages\\_pyinstaller_hooks_contrib\\hooks\\stdhooks\\__pycache__',
  'C:\\Users\\Manu\\AppData\\Local\\Programs\\Python\\Python39\\lib\\site-packages\\_pyinstaller_hooks_contrib\\hooks\\rthooks',
  'C:\\Users\\Manu\\AppData\\Local\\Programs\\Python\\Python39\\lib\\site-packages\\_pyinstaller_hooks_contrib\\hooks\\rthooks\\__pycache__',
  'C:\\Users\\Manu\\AppData\\Local\\Programs\\Python\\Python39\\lib\\site-packages\\_pyinstaller_hooks_contrib\\hooks',
  'c:\\users\\manu\\venv\\lib\\site-packages\\pygame\\__pyinstaller'],
 [],
 [],
 False,
 False,
 False,
 '3.9.0 (tags/v3.9.0:9cf6752, Oct  5 2020, 15:34:40) [MSC v.1927 64 bit '
 '(AMD64)]',
 [('pyi_rth_multiprocessing',
   'C:\\Users\\Manu\\venv\\Lib\\site-packages\\PyInstaller\\hooks\\rthooks\\pyi_rth_multiprocessing.py',
   'PYSOURCE'),
  ('pyi_rth_pkgres',
   'C:\\Users\\Manu\\venv\\Lib\\site-packages\\PyInstaller\\hooks\\rthooks\\pyi_rth_pkgres.py',
   'PYSOURCE'),
  ('main',
   'I:\\Daten\\Studium\\Master\\Masterarbeit\\code\\pylistory\\main.py',
   'PYSOURCE')],
 [('pkg_resources',
   'c:\\users\\manu\\venv\\lib\\site-packages\\pkg_resources\\__init__.py',
   'PYMODULE'),
  ('pkg_resources._vendor.pyparsing',
   'c:\\users\\manu\\venv\\lib\\site-packages\\pkg_resources\\_vendor\\pyparsing.py',
   'PYMODULE'),
  ('uuid',
   'C:\\Users\\Manu\\AppData\\Local\\Programs\\Python\\Python39\\lib\\uuid.py',
   'PYMODULE'),
  ('hashlib',
   'C:\\Users\\Manu\\AppData\\Local\\Programs\\Python\\Python39\\lib\\hashlib.py',
   'PYMODULE'),
  ('logging',
   'C:\\Users\\Manu\\AppData\\Local\\Programs\\Python\\Python39\\lib\\logging\\__init__.py',
   'PYMODULE'),
  ('pickle',
   'C:\\Users\\Manu\\AppData\\Local\\Programs\\Python\\Python39\\lib\\pickle.py',
   'PYMODULE'),
  ('doctest',
   'C:\\Users\\Manu\\AppData\\Local\\Programs\\Python\\Python39\\lib\\doctest.py',
   'PYMODULE'),
  ('argparse',
   'C:\\Users\\Manu\\AppData\\Local\\Programs\\Python\\Python39\\lib\\argparse.py',
   'PYMODULE'),
  ('gettext',
   'C:\\Users\\Manu\\AppData\\Local\\Programs\\Python\\Python39\\lib\\gettext.py',
   'PYMODULE'),
  ('unittest',
   'C:\\Users\\Manu\\AppData\\Local\\Programs\\Python\\Python39\\lib\\unittest\\__init__.py',
   'PYMODULE'),
  ('unittest.async_case',
   'C:\\Users\\Manu\\AppData\\Local\\Programs\\Python\\Python39\\lib\\unittest\\async_case.py',
   'PYMODULE'),
  ('asyncio',
   'C:\\Users\\Manu\\AppData\\Local\\Programs\\Python\\Python39\\lib\\asyncio\\__init__.py',
   'PYMODULE'),
  ('asyncio.unix_events',
   'C:\\Users\\Manu\\AppData\\Local\\Programs\\Python\\Python39\\lib\\asyncio\\unix_events.py',
   'PYMODULE'),
  ('asyncio.log',
   'C:\\Users\\Manu\\AppData\\Local\\Programs\\Python\\Python39\\lib\\asyncio\\log.py',
   'PYMODULE'),
  ('signal',
   'C:\\Users\\Manu\\AppData\\Local\\Programs\\Python\\Python39\\lib\\signal.py',
   'PYMODULE'),
  ('selectors',
   'C:\\Users\\Manu\\AppData\\Local\\Programs\\Python\\Python39\\lib\\selectors.py',
   'PYMODULE'),
  ('asyncio.windows_events',
   'C:\\Users\\Manu\\AppData\\Local\\Programs\\Python\\Python39\\lib\\asyncio\\windows_events.py',
   'PYMODULE'),
  ('asyncio.windows_utils',
   'C:\\Users\\Manu\\AppData\\Local\\Programs\\Python\\Python39\\lib\\asyncio\\windows_utils.py',
   'PYMODULE'),
  ('asyncio.selector_events',
   'C:\\Users\\Manu\\AppData\\Local\\Programs\\Python\\Python39\\lib\\asyncio\\selector_events.py',
   'PYMODULE'),
  ('ssl',
   'C:\\Users\\Manu\\AppData\\Local\\Programs\\Python\\Python39\\lib\\ssl.py',
   'PYMODULE'),
  ('calendar',
   'C:\\Users\\Manu\\AppData\\Local\\Programs\\Python\\Python39\\lib\\calendar.py',
   'PYMODULE'),
  ('base64',
   'C:\\Users\\Manu\\AppData\\Local\\Programs\\Python\\Python39\\lib\\base64.py',
   'PYMODULE'),
  ('getopt',
   'C:\\Users\\Manu\\AppData\\Local\\Programs\\Python\\Python39\\lib\\getopt.py',
   'PYMODULE'),
  ('asyncio.proactor_events',
   'C:\\Users\\Manu\\AppData\\Local\\Programs\\Python\\Python39\\lib\\asyncio\\proactor_events.py',
   'PYMODULE'),
  ('asyncio.base_subprocess',
   'C:\\Users\\Manu\\AppData\\Local\\Programs\\Python\\Python39\\lib\\asyncio\\base_subprocess.py',
   'PYMODULE'),
  ('asyncio.threads',
   'C:\\Users\\Manu\\AppData\\Local\\Programs\\Python\\Python39\\lib\\asyncio\\threads.py',
   'PYMODULE'),
  ('contextvars',
   'C:\\Users\\Manu\\AppData\\Local\\Programs\\Python\\Python39\\lib\\contextvars.py',
   'PYMODULE'),
  ('asyncio.subprocess',
   'C:\\Users\\Manu\\AppData\\Local\\Programs\\Python\\Python39\\lib\\asyncio\\subprocess.py',
   'PYMODULE'),
  ('asyncio.streams',
   'C:\\Users\\Manu\\AppData\\Local\\Programs\\Python\\Python39\\lib\\asyncio\\streams.py',
   'PYMODULE'),
  ('asyncio.queues',
   'C:\\Users\\Manu\\AppData\\Local\\Programs\\Python\\Python39\\lib\\asyncio\\queues.py',
   'PYMODULE'),
  ('asyncio.runners',
   'C:\\Users\\Manu\\AppData\\Local\\Programs\\Python\\Python39\\lib\\asyncio\\runners.py',
   'PYMODULE'),
  ('asyncio.events',
   'C:\\Users\\Manu\\AppData\\Local\\Programs\\Python\\Python39\\lib\\asyncio\\events.py',
   'PYMODULE'),
  ('asyncio.base_events',
   'C:\\Users\\Manu\\AppData\\Local\\Programs\\Python\\Python39\\lib\\asyncio\\base_events.py',
   'PYMODULE'),
  ('concurrent.futures',
   'C:\\Users\\Manu\\AppData\\Local\\Programs\\Python\\Python39\\lib\\concurrent\\futures\\__init__.py',
   'PYMODULE'),
  ('concurrent.futures.thread',
   'C:\\Users\\Manu\\AppData\\Local\\Programs\\Python\\Python39\\lib\\concurrent\\futures\\thread.py',
   'PYMODULE'),
  ('queue',
   'C:\\Users\\Manu\\AppData\\Local\\Programs\\Python\\Python39\\lib\\queue.py',
   'PYMODULE'),
  ('concurrent.futures.process',
   'C:\\Users\\Manu\\AppData\\Local\\Programs\\Python\\Python39\\lib\\concurrent\\futures\\process.py',
   'PYMODULE'),
  ('multiprocessing.queues',
   'C:\\Users\\Manu\\AppData\\Local\\Programs\\Python\\Python39\\lib\\multiprocessing\\queues.py',
   'PYMODULE'),
  ('multiprocessing.synchronize',
   'C:\\Users\\Manu\\AppData\\Local\\Programs\\Python\\Python39\\lib\\multiprocessing\\synchronize.py',
   'PYMODULE'),
  ('multiprocessing.heap',
   'C:\\Users\\Manu\\AppData\\Local\\Programs\\Python\\Python39\\lib\\multiprocessing\\heap.py',
   'PYMODULE'),
  ('bisect',
   'C:\\Users\\Manu\\AppData\\Local\\Programs\\Python\\Python39\\lib\\bisect.py',
   'PYMODULE'),
  ('multiprocessing.resource_tracker',
   'C:\\Users\\Manu\\AppData\\Local\\Programs\\Python\\Python39\\lib\\multiprocessing\\resource_tracker.py',
   'PYMODULE'),
  ('multiprocessing.spawn',
   'C:\\Users\\Manu\\AppData\\Local\\Programs\\Python\\Python39\\lib\\multiprocessing\\spawn.py',
   'PYMODULE'),
  ('runpy',
   'C:\\Users\\Manu\\AppData\\Local\\Programs\\Python\\Python39\\lib\\runpy.py',
   'PYMODULE'),
  ('importlib.util',
   'C:\\Users\\Manu\\AppData\\Local\\Programs\\Python\\Python39\\lib\\importlib\\util.py',
   'PYMODULE'),
  ('contextlib',
   'C:\\Users\\Manu\\AppData\\Local\\Programs\\Python\\Python39\\lib\\contextlib.py',
   'PYMODULE'),
  ('importlib._bootstrap_external',
   'C:\\Users\\Manu\\AppData\\Local\\Programs\\Python\\Python39\\lib\\importlib\\_bootstrap_external.py',
   'PYMODULE'),
  ('importlib.metadata',
   'C:\\Users\\Manu\\AppData\\Local\\Programs\\Python\\Python39\\lib\\importlib\\metadata.py',
   'PYMODULE'),
  ('configparser',
   'C:\\Users\\Manu\\AppData\\Local\\Programs\\Python\\Python39\\lib\\configparser.py',
   'PYMODULE'),
  ('pathlib',
   'C:\\Users\\Manu\\AppData\\Local\\Programs\\Python\\Python39\\lib\\pathlib.py',
   'PYMODULE'),
  ('urllib.parse',
   'C:\\Users\\Manu\\AppData\\Local\\Programs\\Python\\Python39\\lib\\urllib\\parse.py',
   'PYMODULE'),
  ('urllib',
   'C:\\Users\\Manu\\AppData\\Local\\Programs\\Python\\Python39\\lib\\urllib\\__init__.py',
   'PYMODULE'),
  ('fnmatch',
   'C:\\Users\\Manu\\AppData\\Local\\Programs\\Python\\Python39\\lib\\fnmatch.py',
   'PYMODULE'),
  ('email',
   'C:\\Users\\Manu\\AppData\\Local\\Programs\\Python\\Python39\\lib\\email\\__init__.py',
   'PYMODULE'),
  ('email._header_value_parser',
   'C:\\Users\\Manu\\AppData\\Local\\Programs\\Python\\Python39\\lib\\email\\_header_value_parser.py',
   'PYMODULE'),
  ('email.utils',
   'C:\\Users\\Manu\\AppData\\Local\\Programs\\Python\\Python39\\lib\\email\\utils.py',
   'PYMODULE'),
  ('email._parseaddr',
   'C:\\Users\\Manu\\AppData\\Local\\Programs\\Python\\Python39\\lib\\email\\_parseaddr.py',
   'PYMODULE'),
  ('email._encoded_words',
   'C:\\Users\\Manu\\AppData\\Local\\Programs\\Python\\Python39\\lib\\email\\_encoded_words.py',
   'PYMODULE'),
  ('email.header',
   'C:\\Users\\Manu\\AppData\\Local\\Programs\\Python\\Python39\\lib\\email\\header.py',
   'PYMODULE'),
  ('email.base64mime',
   'C:\\Users\\Manu\\AppData\\Local\\Programs\\Python\\Python39\\lib\\email\\base64mime.py',
   'PYMODULE'),
  ('email.quoprimime',
   'C:\\Users\\Manu\\AppData\\Local\\Programs\\Python\\Python39\\lib\\email\\quoprimime.py',
   'PYMODULE'),
  ('email.charset',
   'C:\\Users\\Manu\\AppData\\Local\\Programs\\Python\\Python39\\lib\\email\\charset.py',
   'PYMODULE'),
  ('email.encoders',
   'C:\\Users\\Manu\\AppData\\Local\\Programs\\Python\\Python39\\lib\\email\\encoders.py',
   'PYMODULE'),
  ('quopri',
   'C:\\Users\\Manu\\AppData\\Local\\Programs\\Python\\Python39\\lib\\quopri.py',
   'PYMODULE'),
  ('email.errors',
   'C:\\Users\\Manu\\AppData\\Local\\Programs\\Python\\Python39\\lib\\email\\errors.py',
   'PYMODULE'),
  ('csv',
   'C:\\Users\\Manu\\AppData\\Local\\Programs\\Python\\Python39\\lib\\csv.py',
   'PYMODULE'),
  ('tokenize',
   'C:\\Users\\Manu\\AppData\\Local\\Programs\\Python\\Python39\\lib\\tokenize.py',
   'PYMODULE'),
  ('token',
   'C:\\Users\\Manu\\AppData\\Local\\Programs\\Python\\Python39\\lib\\token.py',
   'PYMODULE'),
  ('importlib._bootstrap',
   'C:\\Users\\Manu\\AppData\\Local\\Programs\\Python\\Python39\\lib\\importlib\\_bootstrap.py',
   'PYMODULE'),
  ('importlib.abc',
   'C:\\Users\\Manu\\AppData\\Local\\Programs\\Python\\Python39\\lib\\importlib\\abc.py',
   'PYMODULE'),
  ('typing',
   'C:\\Users\\Manu\\AppData\\Local\\Programs\\Python\\Python39\\lib\\typing.py',
   'PYMODULE'),
  ('multiprocessing.process',
   'C:\\Users\\Manu\\AppData\\Local\\Programs\\Python\\Python39\\lib\\multiprocessing\\process.py',
   'PYMODULE'),
  ('multiprocessing.util',
   'C:\\Users\\Manu\\AppData\\Local\\Programs\\Python\\Python39\\lib\\multiprocessing\\util.py',
   'PYMODULE'),
  ('multiprocessing.forkserver',
   'C:\\Users\\Manu\\AppData\\Local\\Programs\\Python\\Python39\\lib\\multiprocessing\\forkserver.py',
   'PYMODULE'),
  ('multiprocessing.context',
   'C:\\Users\\Manu\\AppData\\Local\\Programs\\Python\\Python39\\lib\\multiprocessing\\context.py',
   'PYMODULE'),
  ('multiprocessing.popen_spawn_win32',
   'C:\\Users\\Manu\\AppData\\Local\\Programs\\Python\\Python39\\lib\\multiprocessing\\popen_spawn_win32.py',
   'PYMODULE'),
  ('multiprocessing.popen_forkserver',
   'C:\\Users\\Manu\\AppData\\Local\\Programs\\Python\\Python39\\lib\\multiprocessing\\popen_forkserver.py',
   'PYMODULE'),
  ('multiprocessing.popen_spawn_posix',
   'C:\\Users\\Manu\\AppData\\Local\\Programs\\Python\\Python39\\lib\\multiprocessing\\popen_spawn_posix.py',
   'PYMODULE'),
  ('multiprocessing.popen_fork',
   'C:\\Users\\Manu\\AppData\\Local\\Programs\\Python\\Python39\\lib\\multiprocessing\\popen_fork.py',
   'PYMODULE'),
  ('multiprocessing.sharedctypes',
   'C:\\Users\\Manu\\AppData\\Local\\Programs\\Python\\Python39\\lib\\multiprocessing\\sharedctypes.py',
   'PYMODULE'),
  ('ctypes',
   'C:\\Users\\Manu\\AppData\\Local\\Programs\\Python\\Python39\\lib\\ctypes\\__init__.py',
   'PYMODULE'),
  ('ctypes._endian',
   'C:\\Users\\Manu\\AppData\\Local\\Programs\\Python\\Python39\\lib\\ctypes\\_endian.py',
   'PYMODULE'),
  ('multiprocessing.pool',
   'C:\\Users\\Manu\\AppData\\Local\\Programs\\Python\\Python39\\lib\\multiprocessing\\pool.py',
   'PYMODULE'),
  ('multiprocessing.dummy',
   'C:\\Users\\Manu\\AppData\\Local\\Programs\\Python\\Python39\\lib\\multiprocessing\\dummy\\__init__.py',
   'PYMODULE'),
  ('multiprocessing.dummy.connection',
   'C:\\Users\\Manu\\AppData\\Local\\Programs\\Python\\Python39\\lib\\multiprocessing\\dummy\\connection.py',
   'PYMODULE'),
  ('multiprocessing.managers',
   'C:\\Users\\Manu\\AppData\\Local\\Programs\\Python\\Python39\\lib\\multiprocessing\\managers.py',
   'PYMODULE'),
  ('multiprocessing.shared_memory',
   'C:\\Users\\Manu\\AppData\\Local\\Programs\\Python\\Python39\\lib\\multiprocessing\\shared_memory.py',
   'PYMODULE'),
  ('secrets',
   'C:\\Users\\Manu\\AppData\\Local\\Programs\\Python\\Python39\\lib\\secrets.py',
   'PYMODULE'),
  ('hmac',
   'C:\\Users\\Manu\\AppData\\Local\\Programs\\Python\\Python39\\lib\\hmac.py',
   'PYMODULE'),
  ('multiprocessing.reduction',
   'C:\\Users\\Manu\\AppData\\Local\\Programs\\Python\\Python39\\lib\\multiprocessing\\reduction.py',
   'PYMODULE'),
  ('multiprocessing.resource_sharer',
   'C:\\Users\\Manu\\AppData\\Local\\Programs\\Python\\Python39\\lib\\multiprocessing\\resource_sharer.py',
   'PYMODULE'),
  ('multiprocessing.connection',
   'C:\\Users\\Manu\\AppData\\Local\\Programs\\Python\\Python39\\lib\\multiprocessing\\connection.py',
   'PYMODULE'),
  ('xmlrpc.client',
   'C:\\Users\\Manu\\AppData\\Local\\Programs\\Python\\Python39\\lib\\xmlrpc\\client.py',
   'PYMODULE'),
  ('xmlrpc',
   'C:\\Users\\Manu\\AppData\\Local\\Programs\\Python\\Python39\\lib\\xmlrpc\\__init__.py',
   'PYMODULE'),
  ('gzip',
   'C:\\Users\\Manu\\AppData\\Local\\Programs\\Python\\Python39\\lib\\gzip.py',
   'PYMODULE'),
  ('_compression',
   'C:\\Users\\Manu\\AppData\\Local\\Programs\\Python\\Python39\\lib\\_compression.py',
   'PYMODULE'),
  ('xml.parsers.expat',
   'C:\\Users\\Manu\\AppData\\Local\\Programs\\Python\\Python39\\lib\\xml\\parsers\\expat.py',
   'PYMODULE'),
  ('xml.parsers',
   'C:\\Users\\Manu\\AppData\\Local\\Programs\\Python\\Python39\\lib\\xml\\parsers\\__init__.py',
   'PYMODULE'),
  ('xml',
   'C:\\Users\\Manu\\AppData\\Local\\Programs\\Python\\Python39\\lib\\xml\\__init__.py',
   'PYMODULE'),
  ('xml.sax.expatreader',
   'C:\\Users\\Manu\\AppData\\Local\\Programs\\Python\\Python39\\lib\\xml\\sax\\expatreader.py',
   'PYMODULE'),
  ('xml.sax.saxutils',
   'C:\\Users\\Manu\\AppData\\Local\\Programs\\Python\\Python39\\lib\\xml\\sax\\saxutils.py',
   'PYMODULE'),
  ('urllib.request',
   'C:\\Users\\Manu\\AppData\\Local\\Programs\\Python\\Python39\\lib\\urllib\\request.py',
   'PYMODULE'),
  ('getpass',
   'C:\\Users\\Manu\\AppData\\Local\\Programs\\Python\\Python39\\lib\\getpass.py',
   'PYMODULE'),
  ('nturl2path',
   'C:\\Users\\Manu\\AppData\\Local\\Programs\\Python\\Python39\\lib\\nturl2path.py',
   'PYMODULE'),
  ('ftplib',
   'C:\\Users\\Manu\\AppData\\Local\\Programs\\Python\\Python39\\lib\\ftplib.py',
   'PYMODULE'),
  ('netrc',
   'C:\\Users\\Manu\\AppData\\Local\\Programs\\Python\\Python39\\lib\\netrc.py',
   'PYMODULE'),
  ('shlex',
   'C:\\Users\\Manu\\AppData\\Local\\Programs\\Python\\Python39\\lib\\shlex.py',
   'PYMODULE'),
  ('mimetypes',
   'C:\\Users\\Manu\\AppData\\Local\\Programs\\Python\\Python39\\lib\\mimetypes.py',
   'PYMODULE'),
  ('http.cookiejar',
   'C:\\Users\\Manu\\AppData\\Local\\Programs\\Python\\Python39\\lib\\http\\cookiejar.py',
   'PYMODULE'),
  ('http',
   'C:\\Users\\Manu\\AppData\\Local\\Programs\\Python\\Python39\\lib\\http\\__init__.py',
   'PYMODULE'),
  ('urllib.response',
   'C:\\Users\\Manu\\AppData\\Local\\Programs\\Python\\Python39\\lib\\urllib\\response.py',
   'PYMODULE'),
  ('urllib.error',
   'C:\\Users\\Manu\\AppData\\Local\\Programs\\Python\\Python39\\lib\\urllib\\error.py',
   'PYMODULE'),
  ('xml.sax',
   'C:\\Users\\Manu\\AppData\\Local\\Programs\\Python\\Python39\\lib\\xml\\sax\\__init__.py',
   'PYMODULE'),
  ('xml.sax.handler',
   'C:\\Users\\Manu\\AppData\\Local\\Programs\\Python\\Python39\\lib\\xml\\sax\\handler.py',
   'PYMODULE'),
  ('xml.sax._exceptions',
   'C:\\Users\\Manu\\AppData\\Local\\Programs\\Python\\Python39\\lib\\xml\\sax\\_exceptions.py',
   'PYMODULE'),
  ('xml.sax.xmlreader',
   'C:\\Users\\Manu\\AppData\\Local\\Programs\\Python\\Python39\\lib\\xml\\sax\\xmlreader.py',
   'PYMODULE'),
  ('http.client',
   'C:\\Users\\Manu\\AppData\\Local\\Programs\\Python\\Python39\\lib\\http\\client.py',
   'PYMODULE'),
  ('email.message',
   'C:\\Users\\Manu\\AppData\\Local\\Programs\\Python\\Python39\\lib\\email\\message.py',
   'PYMODULE'),
  ('email.policy',
   'C:\\Users\\Manu\\AppData\\Local\\Programs\\Python\\Python39\\lib\\email\\policy.py',
   'PYMODULE'),
  ('email.contentmanager',
   'C:\\Users\\Manu\\AppData\\Local\\Programs\\Python\\Python39\\lib\\email\\contentmanager.py',
   'PYMODULE'),
  ('email.headerregistry',
   'C:\\Users\\Manu\\AppData\\Local\\Programs\\Python\\Python39\\lib\\email\\headerregistry.py',
   'PYMODULE'),
  ('email.iterators',
   'C:\\Users\\Manu\\AppData\\Local\\Programs\\Python\\Python39\\lib\\email\\iterators.py',
   'PYMODULE'),
  ('email.generator',
   'C:\\Users\\Manu\\AppData\\Local\\Programs\\Python\\Python39\\lib\\email\\generator.py',
   'PYMODULE'),
  ('email._policybase',
   'C:\\Users\\Manu\\AppData\\Local\\Programs\\Python\\Python39\\lib\\email\\_policybase.py',
   'PYMODULE'),
  ('uu',
   'C:\\Users\\Manu\\AppData\\Local\\Programs\\Python\\Python39\\lib\\uu.py',
   'PYMODULE'),
  ('optparse',
   'C:\\Users\\Manu\\AppData\\Local\\Programs\\Python\\Python39\\lib\\optparse.py',
   'PYMODULE'),
  ('decimal',
   'C:\\Users\\Manu\\AppData\\Local\\Programs\\Python\\Python39\\lib\\decimal.py',
   'PYMODULE'),
  ('_pydecimal',
   'C:\\Users\\Manu\\AppData\\Local\\Programs\\Python\\Python39\\lib\\_pydecimal.py',
   'PYMODULE'),
  ('numbers',
   'C:\\Users\\Manu\\AppData\\Local\\Programs\\Python\\Python39\\lib\\numbers.py',
   'PYMODULE'),
  ('multiprocessing',
   'C:\\Users\\Manu\\AppData\\Local\\Programs\\Python\\Python39\\lib\\multiprocessing\\__init__.py',
   'PYMODULE'),
  ('concurrent.futures._base',
   'C:\\Users\\Manu\\AppData\\Local\\Programs\\Python\\Python39\\lib\\concurrent\\futures\\_base.py',
   'PYMODULE'),
  ('concurrent',
   'C:\\Users\\Manu\\AppData\\Local\\Programs\\Python\\Python39\\lib\\concurrent\\__init__.py',
   'PYMODULE'),
  ('asyncio.trsock',
   'C:\\Users\\Manu\\AppData\\Local\\Programs\\Python\\Python39\\lib\\asyncio\\trsock.py',
   'PYMODULE'),
  ('asyncio.staggered',
   'C:\\Users\\Manu\\AppData\\Local\\Programs\\Python\\Python39\\lib\\asyncio\\staggered.py',
   'PYMODULE'),
  ('asyncio.tasks',
   'C:\\Users\\Manu\\AppData\\Local\\Programs\\Python\\Python39\\lib\\asyncio\\tasks.py',
   'PYMODULE'),
  ('asyncio.base_tasks',
   'C:\\Users\\Manu\\AppData\\Local\\Programs\\Python\\Python39\\lib\\asyncio\\base_tasks.py',
   'PYMODULE'),
  ('asyncio.locks',
   'C:\\Users\\Manu\\AppData\\Local\\Programs\\Python\\Python39\\lib\\asyncio\\locks.py',
   'PYMODULE'),
  ('asyncio.sslproto',
   'C:\\Users\\Manu\\AppData\\Local\\Programs\\Python\\Python39\\lib\\asyncio\\sslproto.py',
   'PYMODULE'),
  ('asyncio.transports',
   'C:\\Users\\Manu\\AppData\\Local\\Programs\\Python\\Python39\\lib\\asyncio\\transports.py',
   'PYMODULE'),
  ('asyncio.protocols',
   'C:\\Users\\Manu\\AppData\\Local\\Programs\\Python\\Python39\\lib\\asyncio\\protocols.py',
   'PYMODULE'),
  ('asyncio.futures',
   'C:\\Users\\Manu\\AppData\\Local\\Programs\\Python\\Python39\\lib\\asyncio\\futures.py',
   'PYMODULE'),
  ('asyncio.exceptions',
   'C:\\Users\\Manu\\AppData\\Local\\Programs\\Python\\Python39\\lib\\asyncio\\exceptions.py',
   'PYMODULE'),
  ('asyncio.coroutines',
   'C:\\Users\\Manu\\AppData\\Local\\Programs\\Python\\Python39\\lib\\asyncio\\coroutines.py',
   'PYMODULE'),
  ('asyncio.base_futures',
   'C:\\Users\\Manu\\AppData\\Local\\Programs\\Python\\Python39\\lib\\asyncio\\base_futures.py',
   'PYMODULE'),
  ('asyncio.format_helpers',
   'C:\\Users\\Manu\\AppData\\Local\\Programs\\Python\\Python39\\lib\\asyncio\\format_helpers.py',
   'PYMODULE'),
  ('asyncio.constants',
   'C:\\Users\\Manu\\AppData\\Local\\Programs\\Python\\Python39\\lib\\asyncio\\constants.py',
   'PYMODULE'),
  ('unittest.signals',
   'C:\\Users\\Manu\\AppData\\Local\\Programs\\Python\\Python39\\lib\\unittest\\signals.py',
   'PYMODULE'),
  ('unittest.main',
   'C:\\Users\\Manu\\AppData\\Local\\Programs\\Python\\Python39\\lib\\unittest\\main.py',
   'PYMODULE'),
  ('unittest.runner',
   'C:\\Users\\Manu\\AppData\\Local\\Programs\\Python\\Python39\\lib\\unittest\\runner.py',
   'PYMODULE'),
  ('unittest.loader',
   'C:\\Users\\Manu\\AppData\\Local\\Programs\\Python\\Python39\\lib\\unittest\\loader.py',
   'PYMODULE'),
  ('unittest.suite',
   'C:\\Users\\Manu\\AppData\\Local\\Programs\\Python\\Python39\\lib\\unittest\\suite.py',
   'PYMODULE'),
  ('unittest.case',
   'C:\\Users\\Manu\\AppData\\Local\\Programs\\Python\\Python39\\lib\\unittest\\case.py',
   'PYMODULE'),
  ('unittest._log',
   'C:\\Users\\Manu\\AppData\\Local\\Programs\\Python\\Python39\\lib\\unittest\\_log.py',
   'PYMODULE'),
  ('unittest.result',
   'C:\\Users\\Manu\\AppData\\Local\\Programs\\Python\\Python39\\lib\\unittest\\result.py',
   'PYMODULE'),
  ('unittest.util',
   'C:\\Users\\Manu\\AppData\\Local\\Programs\\Python\\Python39\\lib\\unittest\\util.py',
   'PYMODULE'),
  ('difflib',
   'C:\\Users\\Manu\\AppData\\Local\\Programs\\Python\\Python39\\lib\\difflib.py',
   'PYMODULE'),
  ('__future__',
   'C:\\Users\\Manu\\AppData\\Local\\Programs\\Python\\Python39\\lib\\__future__.py',
   'PYMODULE'),
  ('_compat_pickle',
   'C:\\Users\\Manu\\AppData\\Local\\Programs\\Python\\Python39\\lib\\_compat_pickle.py',
   'PYMODULE'),
  ('struct',
   'C:\\Users\\Manu\\AppData\\Local\\Programs\\Python\\Python39\\lib\\struct.py',
   'PYMODULE'),
  ('random',
   'C:\\Users\\Manu\\AppData\\Local\\Programs\\Python\\Python39\\lib\\random.py',
   'PYMODULE'),
  ('statistics',
   'C:\\Users\\Manu\\AppData\\Local\\Programs\\Python\\Python39\\lib\\statistics.py',
   'PYMODULE'),
  ('fractions',
   'C:\\Users\\Manu\\AppData\\Local\\Programs\\Python\\Python39\\lib\\fractions.py',
   'PYMODULE'),
  ('socket',
   'C:\\Users\\Manu\\AppData\\Local\\Programs\\Python\\Python39\\lib\\socket.py',
   'PYMODULE'),
  ('subprocess',
   'C:\\Users\\Manu\\AppData\\Local\\Programs\\Python\\Python39\\lib\\subprocess.py',
   'PYMODULE'),
  ('shutil',
   'C:\\Users\\Manu\\AppData\\Local\\Programs\\Python\\Python39\\lib\\shutil.py',
   'PYMODULE'),
  ('tarfile',
   'C:\\Users\\Manu\\AppData\\Local\\Programs\\Python\\Python39\\lib\\tarfile.py',
   'PYMODULE'),
  ('lzma',
   'C:\\Users\\Manu\\AppData\\Local\\Programs\\Python\\Python39\\lib\\lzma.py',
   'PYMODULE'),
  ('bz2',
   'C:\\Users\\Manu\\AppData\\Local\\Programs\\Python\\Python39\\lib\\bz2.py',
   'PYMODULE'),
  ('pdb',
   'C:\\Users\\Manu\\AppData\\Local\\Programs\\Python\\Python39\\lib\\pdb.py',
   'PYMODULE'),
  ('pydoc',
   'C:\\Users\\Manu\\AppData\\Local\\Programs\\Python\\Python39\\lib\\pydoc.py',
   'PYMODULE'),
  ('webbrowser',
   'C:\\Users\\Manu\\AppData\\Local\\Programs\\Python\\Python39\\lib\\webbrowser.py',
   'PYMODULE'),
  ('http.server',
   'C:\\Users\\Manu\\AppData\\Local\\Programs\\Python\\Python39\\lib\\http\\server.py',
   'PYMODULE'),
  ('socketserver',
   'C:\\Users\\Manu\\AppData\\Local\\Programs\\Python\\Python39\\lib\\socketserver.py',
   'PYMODULE'),
  ('html',
   'C:\\Users\\Manu\\AppData\\Local\\Programs\\Python\\Python39\\lib\\html\\__init__.py',
   'PYMODULE'),
  ('html.entities',
   'C:\\Users\\Manu\\AppData\\Local\\Programs\\Python\\Python39\\lib\\html\\entities.py',
   'PYMODULE'),
  ('pydoc_data.topics',
   'C:\\Users\\Manu\\AppData\\Local\\Programs\\Python\\Python39\\lib\\pydoc_data\\topics.py',
   'PYMODULE'),
  ('pydoc_data',
   'C:\\Users\\Manu\\AppData\\Local\\Programs\\Python\\Python39\\lib\\pydoc_data\\__init__.py',
   'PYMODULE'),
  ('tty',
   'C:\\Users\\Manu\\AppData\\Local\\Programs\\Python\\Python39\\lib\\tty.py',
   'PYMODULE'),
  ('glob',
   'C:\\Users\\Manu\\AppData\\Local\\Programs\\Python\\Python39\\lib\\glob.py',
   'PYMODULE'),
  ('code',
   'C:\\Users\\Manu\\AppData\\Local\\Programs\\Python\\Python39\\lib\\code.py',
   'PYMODULE'),
  ('codeop',
   'C:\\Users\\Manu\\AppData\\Local\\Programs\\Python\\Python39\\lib\\codeop.py',
   'PYMODULE'),
  ('dis',
   'C:\\Users\\Manu\\AppData\\Local\\Programs\\Python\\Python39\\lib\\dis.py',
   'PYMODULE'),
  ('opcode',
   'C:\\Users\\Manu\\AppData\\Local\\Programs\\Python\\Python39\\lib\\opcode.py',
   'PYMODULE'),
  ('bdb',
   'C:\\Users\\Manu\\AppData\\Local\\Programs\\Python\\Python39\\lib\\bdb.py',
   'PYMODULE'),
  ('cmd',
   'C:\\Users\\Manu\\AppData\\Local\\Programs\\Python\\Python39\\lib\\cmd.py',
   'PYMODULE'),
  ('threading',
   'C:\\Users\\Manu\\AppData\\Local\\Programs\\Python\\Python39\\lib\\threading.py',
   'PYMODULE'),
  ('_threading_local',
   'C:\\Users\\Manu\\AppData\\Local\\Programs\\Python\\Python39\\lib\\_threading_local.py',
   'PYMODULE'),
  ('datetime',
   'C:\\Users\\Manu\\AppData\\Local\\Programs\\Python\\Python39\\lib\\datetime.py',
   'PYMODULE'),
  ('_strptime',
   'C:\\Users\\Manu\\AppData\\Local\\Programs\\Python\\Python39\\lib\\_strptime.py',
   'PYMODULE'),
  ('pprint',
   'C:\\Users\\Manu\\AppData\\Local\\Programs\\Python\\Python39\\lib\\pprint.py',
   'PYMODULE'),
  ('copy',
   'C:\\Users\\Manu\\AppData\\Local\\Programs\\Python\\Python39\\lib\\copy.py',
   'PYMODULE'),
  ('string',
   'C:\\Users\\Manu\\AppData\\Local\\Programs\\Python\\Python39\\lib\\string.py',
   'PYMODULE'),
  ('pkg_resources._vendor.packaging',
   'c:\\users\\manu\\venv\\lib\\site-packages\\pkg_resources\\_vendor\\packaging\\__init__.py',
   'PYMODULE'),
  ('pkg_resources._vendor.packaging.version',
   'c:\\users\\manu\\venv\\lib\\site-packages\\pkg_resources\\_vendor\\packaging\\version.py',
   'PYMODULE'),
  ('pkg_resources._vendor.packaging.__about__',
   'c:\\users\\manu\\venv\\lib\\site-packages\\pkg_resources\\_vendor\\packaging\\__about__.py',
   'PYMODULE'),
  ('pkg_resources._vendor.packaging.specifiers',
   'c:\\users\\manu\\venv\\lib\\site-packages\\pkg_resources\\_vendor\\packaging\\specifiers.py',
   'PYMODULE'),
  ('pkg_resources._vendor.packaging.utils',
   'c:\\users\\manu\\venv\\lib\\site-packages\\pkg_resources\\_vendor\\packaging\\utils.py',
   'PYMODULE'),
  ('pkg_resources._vendor.packaging.requirements',
   'c:\\users\\manu\\venv\\lib\\site-packages\\pkg_resources\\_vendor\\packaging\\requirements.py',
   'PYMODULE'),
  ('pkg_resources._vendor.appdirs',
   'c:\\users\\manu\\venv\\lib\\site-packages\\pkg_resources\\_vendor\\appdirs.py',
   'PYMODULE'),
  ('pkg_resources._vendor.packaging._compat',
   'c:\\users\\manu\\venv\\lib\\site-packages\\pkg_resources\\_vendor\\packaging\\_compat.py',
   'PYMODULE'),
  ('pkg_resources._vendor.packaging._structures',
   'c:\\users\\manu\\venv\\lib\\site-packages\\pkg_resources\\_vendor\\packaging\\_structures.py',
   'PYMODULE'),
  ('pkg_resources._vendor.packaging._typing',
   'c:\\users\\manu\\venv\\lib\\site-packages\\pkg_resources\\_vendor\\packaging\\_typing.py',
   'PYMODULE'),
  ('pkg_resources._vendor',
   'c:\\users\\manu\\venv\\lib\\site-packages\\pkg_resources\\_vendor\\__init__.py',
   'PYMODULE'),
  ('pkg_resources._vendor.packaging.markers',
   'c:\\users\\manu\\venv\\lib\\site-packages\\pkg_resources\\_vendor\\packaging\\markers.py',
   'PYMODULE'),
  ('pkg_resources._vendor.packaging.tags',
   'c:\\users\\manu\\venv\\lib\\site-packages\\pkg_resources\\_vendor\\packaging\\tags.py',
   'PYMODULE'),
  ('distutils.util',
   'C:\\Users\\Manu\\AppData\\Local\\Programs\\Python\\Python39\\lib\\distutils\\util.py',
   'PYMODULE'),
  ('distutils.filelist',
   'C:\\Users\\Manu\\AppData\\Local\\Programs\\Python\\Python39\\lib\\distutils\\filelist.py',
   'PYMODULE'),
  ('distutils.debug',
   'C:\\Users\\Manu\\AppData\\Local\\Programs\\Python\\Python39\\lib\\distutils\\debug.py',
   'PYMODULE'),
  ('distutils.file_util',
   'C:\\Users\\Manu\\AppData\\Local\\Programs\\Python\\Python39\\lib\\distutils\\file_util.py',
   'PYMODULE'),
  ('distutils.dir_util',
   'C:\\Users\\Manu\\AppData\\Local\\Programs\\Python\\Python39\\lib\\distutils\\dir_util.py',
   'PYMODULE'),
  ('py_compile',
   'C:\\Users\\Manu\\AppData\\Local\\Programs\\Python\\Python39\\lib\\py_compile.py',
   'PYMODULE'),
  ('distutils.sysconfig',
   'C:\\Users\\Manu\\AppData\\Local\\Programs\\Python\\Python39\\lib\\distutils\\sysconfig.py',
   'PYMODULE'),
  ('distutils.text_file',
   'C:\\Users\\Manu\\AppData\\Local\\Programs\\Python\\Python39\\lib\\distutils\\text_file.py',
   'PYMODULE'),
  ('_osx_support',
   'C:\\Users\\Manu\\AppData\\Local\\Programs\\Python\\Python39\\lib\\_osx_support.py',
   'PYMODULE'),
  ('_aix_support',
   'C:\\Users\\Manu\\AppData\\Local\\Programs\\Python\\Python39\\lib\\_aix_support.py',
   'PYMODULE'),
  ('_bootsubprocess',
   'C:\\Users\\Manu\\AppData\\Local\\Programs\\Python\\Python39\\lib\\_bootsubprocess.py',
   'PYMODULE'),
  ('distutils.log',
   'C:\\Users\\Manu\\AppData\\Local\\Programs\\Python\\Python39\\lib\\distutils\\log.py',
   'PYMODULE'),
  ('distutils',
   'C:\\Users\\Manu\\AppData\\Local\\Programs\\Python\\Python39\\lib\\distutils\\__init__.py',
   'PYMODULE'),
  ('distutils.ccompiler',
   'C:\\Users\\Manu\\AppData\\Local\\Programs\\Python\\Python39\\lib\\distutils\\ccompiler.py',
   'PYMODULE'),
  ('distutils.fancy_getopt',
   'C:\\Users\\Manu\\AppData\\Local\\Programs\\Python\\Python39\\lib\\distutils\\fancy_getopt.py',
   'PYMODULE'),
  ('distutils.spawn',
   'C:\\Users\\Manu\\AppData\\Local\\Programs\\Python\\Python39\\lib\\distutils\\spawn.py',
   'PYMODULE'),
  ('distutils.dep_util',
   'C:\\Users\\Manu\\AppData\\Local\\Programs\\Python\\Python39\\lib\\distutils\\dep_util.py',
   'PYMODULE'),
  ('distutils.errors',
   'C:\\Users\\Manu\\AppData\\Local\\Programs\\Python\\Python39\\lib\\distutils\\errors.py',
   'PYMODULE'),
  ('sysconfig',
   'C:\\Users\\Manu\\AppData\\Local\\Programs\\Python\\Python39\\lib\\sysconfig.py',
   'PYMODULE'),
  ('pkg_resources.extern',
   'c:\\users\\manu\\venv\\lib\\site-packages\\pkg_resources\\extern\\__init__.py',
   'PYMODULE'),
  ('importlib.machinery',
   'C:\\Users\\Manu\\AppData\\Local\\Programs\\Python\\Python39\\lib\\importlib\\machinery.py',
   'PYMODULE'),
  ('imp',
   'C:\\Users\\Manu\\AppData\\Local\\Programs\\Python\\Python39\\lib\\imp.py',
   'PYMODULE'),
  ('importlib',
   'C:\\Users\\Manu\\AppData\\Local\\Programs\\Python\\Python39\\lib\\importlib\\__init__.py',
   'PYMODULE'),
  ('posixpath',
   'C:\\Users\\Manu\\AppData\\Local\\Programs\\Python\\Python39\\lib\\posixpath.py',
   'PYMODULE'),
  ('genericpath',
   'C:\\Users\\Manu\\AppData\\Local\\Programs\\Python\\Python39\\lib\\genericpath.py',
   'PYMODULE'),
  ('ntpath',
   'C:\\Users\\Manu\\AppData\\Local\\Programs\\Python\\Python39\\lib\\ntpath.py',
   'PYMODULE'),
  ('inspect',
   'C:\\Users\\Manu\\AppData\\Local\\Programs\\Python\\Python39\\lib\\inspect.py',
   'PYMODULE'),
  ('ast',
   'C:\\Users\\Manu\\AppData\\Local\\Programs\\Python\\Python39\\lib\\ast.py',
   'PYMODULE'),
  ('textwrap',
   'C:\\Users\\Manu\\AppData\\Local\\Programs\\Python\\Python39\\lib\\textwrap.py',
   'PYMODULE'),
  ('tempfile',
   'C:\\Users\\Manu\\AppData\\Local\\Programs\\Python\\Python39\\lib\\tempfile.py',
   'PYMODULE'),
  ('email.parser',
   'C:\\Users\\Manu\\AppData\\Local\\Programs\\Python\\Python39\\lib\\email\\parser.py',
   'PYMODULE'),
  ('email.feedparser',
   'C:\\Users\\Manu\\AppData\\Local\\Programs\\Python\\Python39\\lib\\email\\feedparser.py',
   'PYMODULE'),
  ('plistlib',
   'C:\\Users\\Manu\\AppData\\Local\\Programs\\Python\\Python39\\lib\\plistlib.py',
   'PYMODULE'),
  ('platform',
   'C:\\Users\\Manu\\AppData\\Local\\Programs\\Python\\Python39\\lib\\platform.py',
   'PYMODULE'),
  ('pkgutil',
   'C:\\Users\\Manu\\AppData\\Local\\Programs\\Python\\Python39\\lib\\pkgutil.py',
   'PYMODULE'),
  ('stat',
   'C:\\Users\\Manu\\AppData\\Local\\Programs\\Python\\Python39\\lib\\stat.py',
   'PYMODULE'),
  ('zipimport',
   'C:\\Users\\Manu\\AppData\\Local\\Programs\\Python\\Python39\\lib\\zipimport.py',
   'PYMODULE'),
  ('zipfile',
   'C:\\Users\\Manu\\AppData\\Local\\Programs\\Python\\Python39\\lib\\zipfile.py',
   'PYMODULE'),
  ('_py_abc',
   'C:\\Users\\Manu\\AppData\\Local\\Programs\\Python\\Python39\\lib\\_py_abc.py',
   'PYMODULE'),
  ('stringprep',
   'C:\\Users\\Manu\\AppData\\Local\\Programs\\Python\\Python39\\lib\\stringprep.py',
   'PYMODULE'),
  ('tracemalloc',
   'C:\\Users\\Manu\\AppData\\Local\\Programs\\Python\\Python39\\lib\\tracemalloc.py',
   'PYMODULE'),
  ('data.menus.main_menu',
   'I:\\Daten\\Studium\\Master\\Masterarbeit\\code\\pylistory\\data\\menus\\main_menu.py',
   'PYMODULE'),
  ('data.menus',
   'I:\\Daten\\Studium\\Master\\Masterarbeit\\code\\pylistory\\data\\menus\\__init__.py',
   'PYMODULE'),
  ('data.paths',
   'I:\\Daten\\Studium\\Master\\Masterarbeit\\code\\pylistory\\data\\paths.py',
   'PYMODULE'),
  ('data.menus.scenario_menu',
   'I:\\Daten\\Studium\\Master\\Masterarbeit\\code\\pylistory\\data\\menus\\scenario_menu.py',
   'PYMODULE'),
  ('data.menus.char_selection_menus',
   'I:\\Daten\\Studium\\Master\\Masterarbeit\\code\\pylistory\\data\\menus\\char_selection_menus.py',
   'PYMODULE'),
  ('data.player',
   'I:\\Daten\\Studium\\Master\\Masterarbeit\\code\\pylistory\\data\\player.py',
   'PYMODULE'),
  ('data.sprite_sheet',
   'I:\\Daten\\Studium\\Master\\Masterarbeit\\code\\pylistory\\data\\sprite_sheet.py',
   'PYMODULE'),
  ('json',
   'C:\\Users\\Manu\\AppData\\Local\\Programs\\Python\\Python39\\lib\\json\\__init__.py',
   'PYMODULE'),
  ('json.encoder',
   'C:\\Users\\Manu\\AppData\\Local\\Programs\\Python\\Python39\\lib\\json\\encoder.py',
   'PYMODULE'),
  ('json.decoder',
   'C:\\Users\\Manu\\AppData\\Local\\Programs\\Python\\Python39\\lib\\json\\decoder.py',
   'PYMODULE'),
  ('json.scanner',
   'C:\\Users\\Manu\\AppData\\Local\\Programs\\Python\\Python39\\lib\\json\\scanner.py',
   'PYMODULE'),
  ('data.texts',
   'I:\\Daten\\Studium\\Master\\Masterarbeit\\code\\pylistory\\data\\texts.py',
   'PYMODULE'),
  ('data.textbox',
   'I:\\Daten\\Studium\\Master\\Masterarbeit\\code\\pylistory\\data\\textbox.py',
   'PYMODULE'),
  ('data.ptext',
   'I:\\Daten\\Studium\\Master\\Masterarbeit\\code\\pylistory\\data\\ptext.py',
   'PYMODULE'),
  ('dataclasses',
   'C:\\Users\\Manu\\AppData\\Local\\Programs\\Python\\Python39\\lib\\dataclasses.py',
   'PYMODULE'),
  ('data.menus.attribute_menus',
   'I:\\Daten\\Studium\\Master\\Masterarbeit\\code\\pylistory\\data\\menus\\attribute_menus.py',
   'PYMODULE'),
  ('pygame_menu.widgets',
   'c:\\users\\manu\\venv\\lib\\site-packages\\pygame_menu\\widgets\\__init__.py',
   'PYMODULE'),
  ('pygame_menu.widgets.widget',
   'c:\\users\\manu\\venv\\lib\\site-packages\\pygame_menu\\widgets\\widget\\__init__.py',
   'PYMODULE'),
  ('pygame_menu.widgets.widget.menubar',
   'c:\\users\\manu\\venv\\lib\\site-packages\\pygame_menu\\widgets\\widget\\menubar.py',
   'PYMODULE'),
  ('pygame_menu.utils',
   'c:\\users\\manu\\venv\\lib\\site-packages\\pygame_menu\\utils.py',
   'PYMODULE'),
  ('pygame_menu.locals',
   'c:\\users\\manu\\venv\\lib\\site-packages\\pygame_menu\\locals.py',
   'PYMODULE'),
  ('pygame_menu.controls',
   'c:\\users\\manu\\venv\\lib\\site-packages\\pygame_menu\\controls.py',
   'PYMODULE'),
  ('pygame.locals',
   'c:\\users\\manu\\venv\\lib\\site-packages\\pygame\\locals.py',
   'PYMODULE'),
  ('pygame_menu.widgets.widget.vmargin',
   'c:\\users\\manu\\venv\\lib\\site-packages\\pygame_menu\\widgets\\widget\\vmargin.py',
   'PYMODULE'),
  ('pygame_menu.widgets.widget.textinput',
   'c:\\users\\manu\\venv\\lib\\site-packages\\pygame_menu\\widgets\\widget\\textinput.py',
   'PYMODULE'),
  ('pyperclip',
   'C:\\Users\\Manu\\AppData\\Local\\Programs\\Python\\Python39\\lib\\site-packages\\pyperclip\\__init__.py',
   'PYMODULE'),
  ('ctypes.wintypes',
   'C:\\Users\\Manu\\AppData\\Local\\Programs\\Python\\Python39\\lib\\ctypes\\wintypes.py',
   'PYMODULE'),
  ('pygame_menu.widgets.widget.selector',
   'c:\\users\\manu\\venv\\lib\\site-packages\\pygame_menu\\widgets\\widget\\selector.py',
   'PYMODULE'),
  ('pygame_menu.widgets.widget.scrollbar',
   'c:\\users\\manu\\venv\\lib\\site-packages\\pygame_menu\\widgets\\widget\\scrollbar.py',
   'PYMODULE'),
  ('pygame_menu.widgets.widget.label',
   'c:\\users\\manu\\venv\\lib\\site-packages\\pygame_menu\\widgets\\widget\\label.py',
   'PYMODULE'),
  ('pygame_menu.widgets.widget.image',
   'c:\\users\\manu\\venv\\lib\\site-packages\\pygame_menu\\widgets\\widget\\image.py',
   'PYMODULE'),
  ('pygame_menu.baseimage',
   'c:\\users\\manu\\venv\\lib\\site-packages\\pygame_menu\\baseimage.py',
   'PYMODULE'),
  ('pygame_menu.widgets.widget.colorinput',
   'c:\\users\\manu\\venv\\lib\\site-packages\\pygame_menu\\widgets\\widget\\colorinput.py',
   'PYMODULE'),
  ('pygame_menu.widgets.widget.button',
   'c:\\users\\manu\\venv\\lib\\site-packages\\pygame_menu\\widgets\\widget\\button.py',
   'PYMODULE'),
  ('pygame_menu.widgets.selection',
   'c:\\users\\manu\\venv\\lib\\site-packages\\pygame_menu\\widgets\\selection\\__init__.py',
   'PYMODULE'),
  ('pygame_menu.widgets.selection.right_arrow',
   'c:\\users\\manu\\venv\\lib\\site-packages\\pygame_menu\\widgets\\selection\\right_arrow.py',
   'PYMODULE'),
  ('pygame_menu.widgets.selection.arrow_selection',
   'c:\\users\\manu\\venv\\lib\\site-packages\\pygame_menu\\widgets\\selection\\arrow_selection.py',
   'PYMODULE'),
  ('pygame_menu.widgets.selection.none',
   'c:\\users\\manu\\venv\\lib\\site-packages\\pygame_menu\\widgets\\selection\\none.py',
   'PYMODULE'),
  ('pygame_menu.widgets.selection.left_arrow',
   'c:\\users\\manu\\venv\\lib\\site-packages\\pygame_menu\\widgets\\selection\\left_arrow.py',
   'PYMODULE'),
  ('pygame_menu.widgets.selection.highlight',
   'c:\\users\\manu\\venv\\lib\\site-packages\\pygame_menu\\widgets\\selection\\highlight.py',
   'PYMODULE'),
  ('pygame_menu.widgets.core.selection',
   'c:\\users\\manu\\venv\\lib\\site-packages\\pygame_menu\\widgets\\core\\selection.py',
   'PYMODULE'),
  ('pygame_menu.widgets.core',
   'c:\\users\\manu\\venv\\lib\\site-packages\\pygame_menu\\widgets\\core\\__init__.py',
   'PYMODULE'),
  ('pygame_menu.widgets.core.widget',
   'c:\\users\\manu\\venv\\lib\\site-packages\\pygame_menu\\widgets\\core\\widget.py',
   'PYMODULE'),
  ('pygame_menu.sound',
   'c:\\users\\manu\\venv\\lib\\site-packages\\pygame_menu\\sound.py',
   'PYMODULE'),
  ('pygame_menu.font',
   'c:\\users\\manu\\venv\\lib\\site-packages\\pygame_menu\\font.py',
   'PYMODULE'),
  ('pygame_menu',
   'c:\\users\\manu\\venv\\lib\\site-packages\\pygame_menu\\__init__.py',
   'PYMODULE'),
  ('pygame_menu.version',
   'c:\\users\\manu\\venv\\lib\\site-packages\\pygame_menu\\version.py',
   'PYMODULE'),
  ('pygame_menu.themes',
   'c:\\users\\manu\\venv\\lib\\site-packages\\pygame_menu\\themes.py',
   'PYMODULE'),
  ('pygame_menu.scrollarea',
   'c:\\users\\manu\\venv\\lib\\site-packages\\pygame_menu\\scrollarea.py',
   'PYMODULE'),
  ('pygame_menu.menu',
   'c:\\users\\manu\\venv\\lib\\site-packages\\pygame_menu\\menu.py',
   'PYMODULE'),
  ('pygame_menu.events',
   'c:\\users\\manu\\venv\\lib\\site-packages\\pygame_menu\\events.py',
   'PYMODULE'),
  ('pygame.version',
   'c:\\users\\manu\\venv\\lib\\site-packages\\pygame\\version.py',
   'PYMODULE'),
  ('data.buttons',
   'I:\\Daten\\Studium\\Master\\Masterarbeit\\code\\pylistory\\data\\buttons.py',
   'PYMODULE'),
  ('data.menus.menus',
   'I:\\Daten\\Studium\\Master\\Masterarbeit\\code\\pylistory\\data\\menus\\menus.py',
   'PYMODULE'),
  ('data.game1933',
   'I:\\Daten\\Studium\\Master\\Masterarbeit\\code\\pylistory\\data\\game1933.py',
   'PYMODULE'),
  ('data.map',
   'I:\\Daten\\Studium\\Master\\Masterarbeit\\code\\pylistory\\data\\map.py',
   'PYMODULE'),
  ('pytmx',
   'c:\\users\\manu\\venv\\lib\\site-packages\\pytmx\\__init__.py',
   'PYMODULE'),
  ('pytmx.util_pygame',
   'c:\\users\\manu\\venv\\lib\\site-packages\\pytmx\\util_pygame.py',
   'PYMODULE'),
  ('pytmx.pytmx',
   'c:\\users\\manu\\venv\\lib\\site-packages\\pytmx\\pytmx.py',
   'PYMODULE'),
  ('xml.etree.ElementTree',
   'C:\\Users\\Manu\\AppData\\Local\\Programs\\Python\\Python39\\lib\\xml\\etree\\ElementTree.py',
   'PYMODULE'),
  ('xml.etree.cElementTree',
   'C:\\Users\\Manu\\AppData\\Local\\Programs\\Python\\Python39\\lib\\xml\\etree\\cElementTree.py',
   'PYMODULE'),
  ('xml.etree.ElementInclude',
   'C:\\Users\\Manu\\AppData\\Local\\Programs\\Python\\Python39\\lib\\xml\\etree\\ElementInclude.py',
   'PYMODULE'),
  ('xml.etree.ElementPath',
   'C:\\Users\\Manu\\AppData\\Local\\Programs\\Python\\Python39\\lib\\xml\\etree\\ElementPath.py',
   'PYMODULE'),
  ('xml.etree',
   'C:\\Users\\Manu\\AppData\\Local\\Programs\\Python\\Python39\\lib\\xml\\etree\\__init__.py',
   'PYMODULE'),
  ('data.quiz',
   'I:\\Daten\\Studium\\Master\\Masterarbeit\\code\\pylistory\\data\\quiz.py',
   'PYMODULE'),
  ('data.dialogue',
   'I:\\Daten\\Studium\\Master\\Masterarbeit\\code\\pylistory\\data\\dialogue.py',
   'PYMODULE'),
  ('thorpy',
   'c:\\users\\manu\\venv\\lib\\site-packages\\thorpy\\__init__.py',
   'PYMODULE'),
  ('thorpy.gamestools.monitoring',
   'c:\\users\\manu\\venv\\lib\\site-packages\\thorpy\\gamestools\\monitoring.py',
   'PYMODULE'),
  ('thorpy.gamestools.hud',
   'c:\\users\\manu\\venv\\lib\\site-packages\\thorpy\\gamestools\\hud.py',
   'PYMODULE'),
  ('thorpy.gamestools.fx',
   'c:\\users\\manu\\venv\\lib\\site-packages\\thorpy\\gamestools\\fx.py',
   'PYMODULE'),
  ('thorpy._utils.colorscomputing',
   'c:\\users\\manu\\venv\\lib\\site-packages\\thorpy\\_utils\\colorscomputing.py',
   'PYMODULE'),
  ('thorpy._utils.functions',
   'c:\\users\\manu\\venv\\lib\\site-packages\\thorpy\\_utils\\functions.py',
   'PYMODULE'),
  ('thorpy.gamestools.sound',
   'c:\\users\\manu\\venv\\lib\\site-packages\\thorpy\\gamestools\\sound.py',
   'PYMODULE'),
  ('thorpy.gamestools.grid',
   'c:\\users\\manu\\venv\\lib\\site-packages\\thorpy\\gamestools\\grid.py',
   'PYMODULE'),
  ('thorpy.gamestools.drawgrid',
   'c:\\users\\manu\\venv\\lib\\site-packages\\thorpy\\gamestools\\drawgrid.py',
   'PYMODULE'),
  ('thorpy.painting.painters.basicframe',
   'c:\\users\\manu\\venv\\lib\\site-packages\\thorpy\\painting\\painters\\basicframe.py',
   'PYMODULE'),
  ('thorpy.painting.painters.painter',
   'c:\\users\\manu\\venv\\lib\\site-packages\\thorpy\\painting\\painters\\painter.py',
   'PYMODULE'),
  ('thorpy.gamestools.commands',
   'c:\\users\\manu\\venv\\lib\\site-packages\\thorpy\\gamestools\\commands.py',
   'PYMODULE'),
  ('thorpy.gamestools.basegrid',
   'c:\\users\\manu\\venv\\lib\\site-packages\\thorpy\\gamestools\\basegrid.py',
   'PYMODULE'),
  ('thorpy.gamestools',
   'c:\\users\\manu\\venv\\lib\\site-packages\\thorpy\\gamestools\\__init__.py',
   'PYMODULE'),
  ('thorpy.painting.mousecursor',
   'c:\\users\\manu\\venv\\lib\\site-packages\\thorpy\\painting\\mousecursor.py',
   'PYMODULE'),
  ('thorpy.painting.makeup',
   'c:\\users\\manu\\venv\\lib\\site-packages\\thorpy\\painting\\makeup.py',
   'PYMODULE'),
  ('thorpy.painting.painters.imageframe',
   'c:\\users\\manu\\venv\\lib\\site-packages\\thorpy\\painting\\painters\\imageframe.py',
   'PYMODULE'),
  ('thorpy.painting.painters',
   'c:\\users\\manu\\venv\\lib\\site-packages\\thorpy\\painting\\painters\\__init__.py',
   'PYMODULE'),
  ('thorpy.painting.writer',
   'c:\\users\\manu\\venv\\lib\\site-packages\\thorpy\\painting\\writer.py',
   'PYMODULE'),
  ('thorpy.elements.dialog',
   'c:\\users\\manu\\venv\\lib\\site-packages\\thorpy\\elements\\dialog.py',
   'PYMODULE'),
  ('thorpy.miscgui.launchers.launcher',
   'c:\\users\\manu\\venv\\lib\\site-packages\\thorpy\\miscgui\\launchers\\launcher.py',
   'PYMODULE'),
  ('thorpy.miscgui.launchers',
   'c:\\users\\manu\\venv\\lib\\site-packages\\thorpy\\miscgui\\launchers\\__init__.py',
   'PYMODULE'),
  ('thorpy.miscgui.keyer',
   'c:\\users\\manu\\venv\\lib\\site-packages\\thorpy\\miscgui\\keyer.py',
   'PYMODULE'),
  ('thorpy.miscgui.textpacker',
   'c:\\users\\manu\\venv\\lib\\site-packages\\thorpy\\miscgui\\textpacker.py',
   'PYMODULE'),
  ('thorpy.miscgui.pools',
   'c:\\users\\manu\\venv\\lib\\site-packages\\thorpy\\miscgui\\pools.py',
   'PYMODULE'),
  ('thorpy.miscgui.metadata',
   'c:\\users\\manu\\venv\\lib\\site-packages\\thorpy\\miscgui\\metadata.py',
   'PYMODULE'),
  ('thorpy.miscgui.theme',
   'c:\\users\\manu\\venv\\lib\\site-packages\\thorpy\\miscgui\\theme.py',
   'PYMODULE'),
  ('thorpy.miscgui.varset',
   'c:\\users\\manu\\venv\\lib\\site-packages\\thorpy\\miscgui\\varset.py',
   'PYMODULE'),
  ('thorpy.miscgui.title',
   'c:\\users\\manu\\venv\\lib\\site-packages\\thorpy\\miscgui\\title.py',
   'PYMODULE'),
  ('thorpy._utils.strhandler',
   'c:\\users\\manu\\venv\\lib\\site-packages\\thorpy\\_utils\\strhandler.py',
   'PYMODULE'),
  ('thorpy.miscgui.state',
   'c:\\users\\manu\\venv\\lib\\site-packages\\thorpy\\miscgui\\state.py',
   'PYMODULE'),
  ('thorpy.painting.fusionner',
   'c:\\users\\manu\\venv\\lib\\site-packages\\thorpy\\painting\\fusionner.py',
   'PYMODULE'),
  ('thorpy._utils.rectscomputing',
   'c:\\users\\manu\\venv\\lib\\site-packages\\thorpy\\_utils\\rectscomputing.py',
   'PYMODULE'),
  ('thorpy.miscgui._ghoststate',
   'c:\\users\\manu\\venv\\lib\\site-packages\\thorpy\\miscgui\\_ghoststate.py',
   'PYMODULE'),
  ('thorpy.miscgui.initializer',
   'c:\\users\\manu\\venv\\lib\\site-packages\\thorpy\\miscgui\\initializer.py',
   'PYMODULE'),
  ('thorpy.miscgui.parameters',
   'c:\\users\\manu\\venv\\lib\\site-packages\\thorpy\\miscgui\\parameters.py',
   'PYMODULE'),
  ('thorpy.miscgui.painterstyle',
   'c:\\users\\manu\\venv\\lib\\site-packages\\thorpy\\miscgui\\painterstyle.py',
   'PYMODULE'),
  ('thorpy.painting.painters.optionnal.rectframe',
   'c:\\users\\manu\\venv\\lib\\site-packages\\thorpy\\painting\\painters\\optionnal\\rectframe.py',
   'PYMODULE'),
  ('thorpy.painting.painters.optionnal',
   'c:\\users\\manu\\venv\\lib\\site-packages\\thorpy\\painting\\painters\\optionnal\\__init__.py',
   'PYMODULE'),
  ('thorpy.painting.painters.optionnal.human',
   'c:\\users\\manu\\venv\\lib\\site-packages\\thorpy\\painting\\painters\\optionnal\\human.py',
   'PYMODULE'),
  ('thorpy.painting.painters.roundrect',
   'c:\\users\\manu\\venv\\lib\\site-packages\\thorpy\\painting\\painters\\roundrect.py',
   'PYMODULE'),
  ('thorpy.painting.painters.classicround',
   'c:\\users\\manu\\venv\\lib\\site-packages\\thorpy\\painting\\painters\\classicround.py',
   'PYMODULE'),
  ('thorpy.painting.painters.classicframe',
   'c:\\users\\manu\\venv\\lib\\site-packages\\thorpy\\painting\\painters\\classicframe.py',
   'PYMODULE'),
  ('thorpy.miscgui.style',
   'c:\\users\\manu\\venv\\lib\\site-packages\\thorpy\\miscgui\\style.py',
   'PYMODULE'),
  ('thorpy.miscgui.functions',
   'c:\\users\\manu\\venv\\lib\\site-packages\\thorpy\\miscgui\\functions.py',
   'PYMODULE'),
  ('thorpy.miscgui.constants',
   'c:\\users\\manu\\venv\\lib\\site-packages\\thorpy\\miscgui\\constants.py',
   'PYMODULE'),
  ('thorpy.miscgui.reaction',
   'c:\\users\\manu\\venv\\lib\\site-packages\\thorpy\\miscgui\\reaction.py',
   'PYMODULE'),
  ('thorpy.menus.basicmenu',
   'c:\\users\\manu\\venv\\lib\\site-packages\\thorpy\\menus\\basicmenu.py',
   'PYMODULE'),
  ('thorpy.menus.tickedmenu',
   'c:\\users\\manu\\venv\\lib\\site-packages\\thorpy\\menus\\tickedmenu.py',
   'PYMODULE'),
  ('thorpy.elements.animatedgif',
   'c:\\users\\manu\\venv\\lib\\site-packages\\thorpy\\elements\\animatedgif.py',
   'PYMODULE'),
  ('thorpy.painting.pilgraphics',
   'c:\\users\\manu\\venv\\lib\\site-packages\\thorpy\\painting\\pilgraphics.py',
   'PYMODULE'),
  ('pygame.surfarray',
   'c:\\users\\manu\\venv\\lib\\site-packages\\pygame\\surfarray.py',
   'PYMODULE'),
  ('pygame._numpysurfarray',
   'c:\\users\\manu\\venv\\lib\\site-packages\\pygame\\_numpysurfarray.py',
   'PYMODULE'),
  ('thorpy.elements._makeuputils._shadow',
   'c:\\users\\manu\\venv\\lib\\site-packages\\thorpy\\elements\\_makeuputils\\_shadow.py',
   'PYMODULE'),
  ('thorpy.elements._makeuputils',
   'c:\\users\\manu\\venv\\lib\\site-packages\\thorpy\\elements\\_makeuputils\\__init__.py',
   'PYMODULE'),
  ('thorpy.elements._makeuputils._halo',
   'c:\\users\\manu\\venv\\lib\\site-packages\\thorpy\\elements\\_makeuputils\\_halo.py',
   'PYMODULE'),
  ('thorpy.elements.line',
   'c:\\users\\manu\\venv\\lib\\site-packages\\thorpy\\elements\\line.py',
   'PYMODULE'),
  ('thorpy.elements.togglable',
   'c:\\users\\manu\\venv\\lib\\site-packages\\thorpy\\elements\\togglable.py',
   'PYMODULE'),
  ('thorpy.elements.slidersetter',
   'c:\\users\\manu\\venv\\lib\\site-packages\\thorpy\\elements\\slidersetter.py',
   'PYMODULE'),
  ('thorpy.elements.slider',
   'c:\\users\\manu\\venv\\lib\\site-packages\\thorpy\\elements\\slider.py',
   'PYMODULE'),
  ('thorpy.elements._sliderutils._shifters',
   'c:\\users\\manu\\venv\\lib\\site-packages\\thorpy\\elements\\_sliderutils\\_shifters.py',
   'PYMODULE'),
  ('thorpy.elements._sliderutils',
   'c:\\users\\manu\\venv\\lib\\site-packages\\thorpy\\elements\\_sliderutils\\__init__.py',
   'PYMODULE'),
  ('thorpy.elements._sliderutils._dragger',
   'c:\\users\\manu\\venv\\lib\\site-packages\\thorpy\\elements\\_sliderutils\\_dragger.py',
   'PYMODULE'),
  ('thorpy.elements.text',
   'c:\\users\\manu\\venv\\lib\\site-packages\\thorpy\\elements\\text.py',
   'PYMODULE'),
  ('thorpy.elements.lifebar',
   'c:\\users\\manu\\venv\\lib\\site-packages\\thorpy\\elements\\lifebar.py',
   'PYMODULE'),
  ('thorpy.elements.pressable',
   'c:\\users\\manu\\venv\\lib\\site-packages\\thorpy\\elements\\pressable.py',
   'PYMODULE'),
  ('thorpy.elements.keytogglable',
   'c:\\users\\manu\\venv\\lib\\site-packages\\thorpy\\elements\\keytogglable.py',
   'PYMODULE'),
  ('thorpy.elements.keypressable',
   'c:\\users\\manu\\venv\\lib\\site-packages\\thorpy\\elements\\keypressable.py',
   'PYMODULE'),
  ('thorpy.elements.inserter',
   'c:\\users\\manu\\venv\\lib\\site-packages\\thorpy\\elements\\inserter.py',
   'PYMODULE'),
  ('thorpy.elements._inserterutils._cursor',
   'c:\\users\\manu\\venv\\lib\\site-packages\\thorpy\\elements\\_inserterutils\\_cursor.py',
   'PYMODULE'),
  ('thorpy.elements._inserterutils',
   'c:\\users\\manu\\venv\\lib\\site-packages\\thorpy\\elements\\_inserterutils\\__init__.py',
   'PYMODULE'),
  ('thorpy.elements._inserterutils._insertwriter',
   'c:\\users\\manu\\venv\\lib\\site-packages\\thorpy\\elements\\_inserterutils\\_insertwriter.py',
   'PYMODULE'),
  ('thorpy.elements.hoverzone',
   'c:\\users\\manu\\venv\\lib\\site-packages\\thorpy\\elements\\hoverzone.py',
   'PYMODULE'),
  ('thorpy.elements.hoverable',
   'c:\\users\\manu\\venv\\lib\\site-packages\\thorpy\\elements\\hoverable.py',
   'PYMODULE'),
  ('thorpy.elements._hoverutils._hovergetter',
   'c:\\users\\manu\\venv\\lib\\site-packages\\thorpy\\elements\\_hoverutils\\_hovergetter.py',
   'PYMODULE'),
  ('thorpy.painting.painters.optionnal.illuminer',
   'c:\\users\\manu\\venv\\lib\\site-packages\\thorpy\\painting\\painters\\optionnal\\illuminer.py',
   'PYMODULE'),
  ('thorpy.elements._hoverutils',
   'c:\\users\\manu\\venv\\lib\\site-packages\\thorpy\\elements\\_hoverutils\\__init__.py',
   'PYMODULE'),
  ('thorpy.elements.ghost',
   'c:\\users\\manu\\venv\\lib\\site-packages\\thorpy\\elements\\ghost.py',
   'PYMODULE'),
  ('thorpy.elements.element',
   'c:\\users\\manu\\venv\\lib\\site-packages\\thorpy\\elements\\element.py',
   'PYMODULE'),
  ('thorpy.elements.lift',
   'c:\\users\\manu\\venv\\lib\\site-packages\\thorpy\\elements\\lift.py',
   'PYMODULE'),
  ('thorpy.miscgui._screened',
   'c:\\users\\manu\\venv\\lib\\site-packages\\thorpy\\miscgui\\_screened.py',
   'PYMODULE'),
  ('thorpy.elements.draggable',
   'c:\\users\\manu\\venv\\lib\\site-packages\\thorpy\\elements\\draggable.py',
   'PYMODULE'),
  ('thorpy.elements.ddlf',
   'c:\\users\\manu\\venv\\lib\\site-packages\\thorpy\\elements\\ddlf.py',
   'PYMODULE'),
  ('thorpy.elements._explorerutils._dirviewer',
   'c:\\users\\manu\\venv\\lib\\site-packages\\thorpy\\elements\\_explorerutils\\_dirviewer.py',
   'PYMODULE'),
  ('thorpy.elements._explorerutils',
   'c:\\users\\manu\\venv\\lib\\site-packages\\thorpy\\elements\\_explorerutils\\__init__.py',
   'PYMODULE'),
  ('thorpy.elements.colorsetter',
   'c:\\users\\manu\\venv\\lib\\site-packages\\thorpy\\elements\\colorsetter.py',
   'PYMODULE'),
  ('thorpy.elements._wrappers',
   'c:\\users\\manu\\venv\\lib\\site-packages\\thorpy\\elements\\_wrappers.py',
   'PYMODULE'),
  ('thorpy.elements.clickable',
   'c:\\users\\manu\\venv\\lib\\site-packages\\thorpy\\elements\\clickable.py',
   'PYMODULE'),
  ('thorpy.elements.checker',
   'c:\\users\\manu\\venv\\lib\\site-packages\\thorpy\\elements\\checker.py',
   'PYMODULE'),
  ('thorpy.elements.browser',
   'c:\\users\\manu\\venv\\lib\\site-packages\\thorpy\\elements\\browser.py',
   'PYMODULE'),
  ('thorpy.elements._explorerutils._pathelement',
   'c:\\users\\manu\\venv\\lib\\site-packages\\thorpy\\elements\\_explorerutils\\_pathelement.py',
   'PYMODULE'),
  ('thorpy.elements.browserlight',
   'c:\\users\\manu\\venv\\lib\\site-packages\\thorpy\\elements\\browserlight.py',
   'PYMODULE'),
  ('thorpy.elements.box',
   'c:\\users\\manu\\venv\\lib\\site-packages\\thorpy\\elements\\box.py',
   'PYMODULE'),
  ('thorpy.elements.image',
   'c:\\users\\manu\\venv\\lib\\site-packages\\thorpy\\elements\\image.py',
   'PYMODULE'),
  ('thorpy.elements.background',
   'c:\\users\\manu\\venv\\lib\\site-packages\\thorpy\\elements\\background.py',
   'PYMODULE'),
  ('thorpy.elements.paramsetter',
   'c:\\users\\manu\\venv\\lib\\site-packages\\thorpy\\elements\\paramsetter.py',
   'PYMODULE'),
  ('thorpy.elements.launchers.colorsetterlauncher',
   'c:\\users\\manu\\venv\\lib\\site-packages\\thorpy\\elements\\launchers\\colorsetterlauncher.py',
   'PYMODULE'),
  ('thorpy.elements.launchers',
   'c:\\users\\manu\\venv\\lib\\site-packages\\thorpy\\elements\\launchers\\__init__.py',
   'PYMODULE'),
  ('thorpy.elements.launchers.paramsetterlauncher',
   'c:\\users\\manu\\venv\\lib\\site-packages\\thorpy\\elements\\launchers\\paramsetterlauncher.py',
   'PYMODULE'),
  ('thorpy.elements.launchers.dropdownlistlauncher',
   'c:\\users\\manu\\venv\\lib\\site-packages\\thorpy\\elements\\launchers\\dropdownlistlauncher.py',
   'PYMODULE'),
  ('thorpy.elements.launchers.browserlauncher',
   'c:\\users\\manu\\venv\\lib\\site-packages\\thorpy\\elements\\launchers\\browserlauncher.py',
   'PYMODULE'),
  ('thorpy._utils.images',
   'c:\\users\\manu\\venv\\lib\\site-packages\\thorpy\\_utils\\images.py',
   'PYMODULE'),
  ('thorpy.painting.graphics',
   'c:\\users\\manu\\venv\\lib\\site-packages\\thorpy\\painting\\graphics.py',
   'PYMODULE'),
  ('thorpy.miscgui.storage',
   'c:\\users\\manu\\venv\\lib\\site-packages\\thorpy\\miscgui\\storage.py',
   'PYMODULE'),
  ('thorpy.miscgui.application',
   'c:\\users\\manu\\venv\\lib\\site-packages\\thorpy\\miscgui\\application.py',
   'PYMODULE'),
  ('thorpy.painting',
   'c:\\users\\manu\\venv\\lib\\site-packages\\thorpy\\painting\\__init__.py',
   'PYMODULE'),
  ('thorpy.miscgui',
   'c:\\users\\manu\\venv\\lib\\site-packages\\thorpy\\miscgui\\__init__.py',
   'PYMODULE'),
  ('thorpy._utils',
   'c:\\users\\manu\\venv\\lib\\site-packages\\thorpy\\_utils\\__init__.py',
   'PYMODULE'),
  ('thorpy.menus',
   'c:\\users\\manu\\venv\\lib\\site-packages\\thorpy\\menus\\__init__.py',
   'PYMODULE'),
  ('thorpy.elements',
   'c:\\users\\manu\\venv\\lib\\site-packages\\thorpy\\elements\\__init__.py',
   'PYMODULE'),
  ('config.config',
   'I:\\Daten\\Studium\\Master\\Masterarbeit\\code\\pylistory\\config\\config.py',
   'PYMODULE'),
  ('config',
   'I:\\Daten\\Studium\\Master\\Masterarbeit\\code\\pylistory\\config\\__init__.py',
   'PYMODULE'),
  ('data.public',
   'I:\\Daten\\Studium\\Master\\Masterarbeit\\code\\pylistory\\data\\public.py',
   'PYMODULE'),
  ('data',
   'I:\\Daten\\Studium\\Master\\Masterarbeit\\code\\pylistory\\data\\__init__.py',
   'PYMODULE'),
  ('data.utils',
   'I:\\Daten\\Studium\\Master\\Masterarbeit\\code\\pylistory\\data\\utils.py',
   'PYMODULE'),
  ('pygame',
   'c:\\users\\manu\\venv\\lib\\site-packages\\pygame\\__init__.py',
   'PYMODULE'),
  ('pygame.colordict',
   'c:\\users\\manu\\venv\\lib\\site-packages\\pygame\\colordict.py',
   'PYMODULE'),
  ('pygame.macosx',
   'c:\\users\\manu\\venv\\lib\\site-packages\\pygame\\macosx.py',
   'PYMODULE'),
  ('pygame.pkgdata',
   'c:\\users\\manu\\venv\\lib\\site-packages\\pygame\\pkgdata.py',
   'PYMODULE'),
  ('pygame.sndarray',
   'c:\\users\\manu\\venv\\lib\\site-packages\\pygame\\sndarray.py',
   'PYMODULE'),
  ('pygame._numpysndarray',
   'c:\\users\\manu\\venv\\lib\\site-packages\\pygame\\_numpysndarray.py',
   'PYMODULE'),
  ('pygame.sysfont',
   'c:\\users\\manu\\venv\\lib\\site-packages\\pygame\\sysfont.py',
   'PYMODULE'),
  ('pygame.ftfont',
   'c:\\users\\manu\\venv\\lib\\site-packages\\pygame\\ftfont.py',
   'PYMODULE'),
  ('pygame.threads',
   'c:\\users\\manu\\venv\\lib\\site-packages\\pygame\\threads\\__init__.py',
   'PYMODULE'),
  ('pygame.sprite',
   'c:\\users\\manu\\venv\\lib\\site-packages\\pygame\\sprite.py',
   'PYMODULE'),
  ('pygame.cursors',
   'c:\\users\\manu\\venv\\lib\\site-packages\\pygame\\cursors.py',
   'PYMODULE'),
  ('pygame.compat',
   'c:\\users\\manu\\venv\\lib\\site-packages\\pygame\\compat.py',
   'PYMODULE'),
  ('os',
   'C:\\Users\\Manu\\AppData\\Local\\Programs\\Python\\Python39\\lib\\os.py',
   'PYMODULE')],
 [('libogg-0.dll',
   'c:\\users\\manu\\venv\\lib\\site-packages\\pygame\\libogg-0.dll',
   'BINARY'),
  ('libvorbis-0.dll',
   'c:\\users\\manu\\venv\\lib\\site-packages\\pygame\\libvorbis-0.dll',
   'BINARY'),
  ('SDL2_ttf.dll',
   'c:\\users\\manu\\venv\\lib\\site-packages\\pygame\\SDL2_ttf.dll',
   'BINARY'),
  ('libwebp-7.dll',
   'c:\\users\\manu\\venv\\lib\\site-packages\\pygame\\libwebp-7.dll',
   'BINARY'),
  ('libjpeg-9.dll',
   'c:\\users\\manu\\venv\\lib\\site-packages\\pygame\\libjpeg-9.dll',
   'BINARY'),
  ('libvorbisfile-3.dll',
   'c:\\users\\manu\\venv\\lib\\site-packages\\pygame\\libvorbisfile-3.dll',
   'BINARY'),
  ('libfreetype-6.dll',
   'c:\\users\\manu\\venv\\lib\\site-packages\\pygame\\libfreetype-6.dll',
   'BINARY'),
  ('SDL2.dll',
   'c:\\users\\manu\\venv\\lib\\site-packages\\pygame\\SDL2.dll',
   'BINARY'),
  ('SDL2_mixer.dll',
   'c:\\users\\manu\\venv\\lib\\site-packages\\pygame\\SDL2_mixer.dll',
   'BINARY'),
  ('libopus-0.dll',
   'c:\\users\\manu\\venv\\lib\\site-packages\\pygame\\libopus-0.dll',
   'BINARY'),
  ('libmpg123-0.dll',
   'c:\\users\\manu\\venv\\lib\\site-packages\\pygame\\libmpg123-0.dll',
   'BINARY'),
  ('libmodplug-1.dll',
   'c:\\users\\manu\\venv\\lib\\site-packages\\pygame\\libmodplug-1.dll',
   'BINARY'),
  ('libFLAC-8.dll',
   'c:\\users\\manu\\venv\\lib\\site-packages\\pygame\\libFLAC-8.dll',
   'BINARY'),
  ('SDL2_image.dll',
   'c:\\users\\manu\\venv\\lib\\site-packages\\pygame\\SDL2_image.dll',
   'BINARY'),
  ('libpng16-16.dll',
   'c:\\users\\manu\\venv\\lib\\site-packages\\pygame\\libpng16-16.dll',
   'BINARY'),
  ('libopusfile-0.dll',
   'c:\\users\\manu\\venv\\lib\\site-packages\\pygame\\libopusfile-0.dll',
   'BINARY'),
  ('portmidi.dll',
   'c:\\users\\manu\\venv\\lib\\site-packages\\pygame\\portmidi.dll',
   'BINARY'),
  ('zlib1.dll',
   'c:\\users\\manu\\venv\\lib\\site-packages\\pygame\\zlib1.dll',
   'BINARY'),
  ('libtiff-5.dll',
   'c:\\users\\manu\\venv\\lib\\site-packages\\pygame\\libtiff-5.dll',
   'BINARY'),
  ('select',
   'C:\\Users\\Manu\\AppData\\Local\\Programs\\Python\\Python39\\DLLs\\select.pyd',
   'EXTENSION'),
  ('_overlapped',
   'C:\\Users\\Manu\\AppData\\Local\\Programs\\Python\\Python39\\DLLs\\_overlapped.pyd',
   'EXTENSION'),
  ('_ssl',
   'C:\\Users\\Manu\\AppData\\Local\\Programs\\Python\\Python39\\DLLs\\_ssl.pyd',
   'EXTENSION'),
  ('_asyncio',
   'C:\\Users\\Manu\\AppData\\Local\\Programs\\Python\\Python39\\DLLs\\_asyncio.pyd',
   'EXTENSION'),
  ('_queue',
   'C:\\Users\\Manu\\AppData\\Local\\Programs\\Python\\Python39\\DLLs\\_queue.pyd',
   'EXTENSION'),
  ('unicodedata',
   'C:\\Users\\Manu\\AppData\\Local\\Programs\\Python\\Python39\\DLLs\\unicodedata.pyd',
   'EXTENSION'),
  ('_ctypes',
   'C:\\Users\\Manu\\AppData\\Local\\Programs\\Python\\Python39\\DLLs\\_ctypes.pyd',
   'EXTENSION'),
  ('_multiprocessing',
   'C:\\Users\\Manu\\AppData\\Local\\Programs\\Python\\Python39\\DLLs\\_multiprocessing.pyd',
   'EXTENSION'),
  ('pyexpat',
   'C:\\Users\\Manu\\AppData\\Local\\Programs\\Python\\Python39\\DLLs\\pyexpat.pyd',
   'EXTENSION'),
  ('_decimal',
   'C:\\Users\\Manu\\AppData\\Local\\Programs\\Python\\Python39\\DLLs\\_decimal.pyd',
   'EXTENSION'),
  ('_hashlib',
   'C:\\Users\\Manu\\AppData\\Local\\Programs\\Python\\Python39\\DLLs\\_hashlib.pyd',
   'EXTENSION'),
  ('_uuid',
   'C:\\Users\\Manu\\AppData\\Local\\Programs\\Python\\Python39\\DLLs\\_uuid.pyd',
   'EXTENSION'),
  ('_socket',
   'C:\\Users\\Manu\\AppData\\Local\\Programs\\Python\\Python39\\DLLs\\_socket.pyd',
   'EXTENSION'),
  ('_lzma',
   'C:\\Users\\Manu\\AppData\\Local\\Programs\\Python\\Python39\\DLLs\\_lzma.pyd',
   'EXTENSION'),
  ('_bz2',
   'C:\\Users\\Manu\\AppData\\Local\\Programs\\Python\\Python39\\DLLs\\_bz2.pyd',
   'EXTENSION'),
  ('pygame.color',
   'c:\\users\\manu\\venv\\lib\\site-packages\\pygame\\color.cp39-win_amd64.pyd',
   'EXTENSION'),
  ('pygame.rect',
   'c:\\users\\manu\\venv\\lib\\site-packages\\pygame\\rect.cp39-win_amd64.pyd',
   'EXTENSION'),
  ('pygame.constants',
   'c:\\users\\manu\\venv\\lib\\site-packages\\pygame\\constants.cp39-win_amd64.pyd',
   'EXTENSION'),
  ('pygame.gfxdraw',
   'c:\\users\\manu\\venv\\lib\\site-packages\\pygame\\gfxdraw.cp39-win_amd64.pyd',
   'EXTENSION'),
  ('pygame.mixer',
   'c:\\users\\manu\\venv\\lib\\site-packages\\pygame\\mixer.cp39-win_amd64.pyd',
   'EXTENSION'),
  ('pygame.font',
   'c:\\users\\manu\\venv\\lib\\site-packages\\pygame\\font.cp39-win_amd64.pyd',
   'EXTENSION'),
  ('pygame.base',
   'c:\\users\\manu\\venv\\lib\\site-packages\\pygame\\base.cp39-win_amd64.pyd',
   'EXTENSION'),
  ('pygame.transform',
   'c:\\users\\manu\\venv\\lib\\site-packages\\pygame\\transform.cp39-win_amd64.pyd',
   'EXTENSION'),
  ('_elementtree',
   'C:\\Users\\Manu\\AppData\\Local\\Programs\\Python\\Python39\\DLLs\\_elementtree.pyd',
   'EXTENSION'),
  ('pygame.math',
   'c:\\users\\manu\\venv\\lib\\site-packages\\pygame\\math.cp39-win_amd64.pyd',
   'EXTENSION'),
  ('pygame.event',
   'c:\\users\\manu\\venv\\lib\\site-packages\\pygame\\event.cp39-win_amd64.pyd',
   'EXTENSION'),
  ('pygame.draw',
   'c:\\users\\manu\\venv\\lib\\site-packages\\pygame\\draw.cp39-win_amd64.pyd',
   'EXTENSION'),
  ('pygame.image',
   'c:\\users\\manu\\venv\\lib\\site-packages\\pygame\\image.cp39-win_amd64.pyd',
   'EXTENSION'),
  ('pygame.pixelcopy',
   'c:\\users\\manu\\venv\\lib\\site-packages\\pygame\\pixelcopy.cp39-win_amd64.pyd',
   'EXTENSION'),
  ('pygame.mouse',
   'c:\\users\\manu\\venv\\lib\\site-packages\\pygame\\mouse.cp39-win_amd64.pyd',
   'EXTENSION'),
  ('pygame.key',
   'c:\\users\\manu\\venv\\lib\\site-packages\\pygame\\key.cp39-win_amd64.pyd',
   'EXTENSION'),
  ('pygame.display',
   'c:\\users\\manu\\venv\\lib\\site-packages\\pygame\\display.cp39-win_amd64.pyd',
   'EXTENSION'),
  ('pygame.surface',
   'c:\\users\\manu\\venv\\lib\\site-packages\\pygame\\surface.cp39-win_amd64.pyd',
   'EXTENSION'),
  ('pygame.imageext',
   'c:\\users\\manu\\venv\\lib\\site-packages\\pygame\\imageext.cp39-win_amd64.pyd',
   'EXTENSION'),
  ('pygame.fastevent',
   'c:\\users\\manu\\venv\\lib\\site-packages\\pygame\\fastevent.cp39-win_amd64.pyd',
   'EXTENSION'),
  ('pygame.scrap',
   'c:\\users\\manu\\venv\\lib\\site-packages\\pygame\\scrap.cp39-win_amd64.pyd',
   'EXTENSION'),
  ('pygame.mixer_music',
   'c:\\users\\manu\\venv\\lib\\site-packages\\pygame\\mixer_music.cp39-win_amd64.pyd',
   'EXTENSION'),
  ('pygame._freetype',
   'c:\\users\\manu\\venv\\lib\\site-packages\\pygame\\_freetype.cp39-win_amd64.pyd',
   'EXTENSION'),
  ('pygame.time',
   'c:\\users\\manu\\venv\\lib\\site-packages\\pygame\\time.cp39-win_amd64.pyd',
   'EXTENSION'),
  ('pygame.pixelarray',
   'c:\\users\\manu\\venv\\lib\\site-packages\\pygame\\pixelarray.cp39-win_amd64.pyd',
   'EXTENSION'),
  ('pygame.mask',
   'c:\\users\\manu\\venv\\lib\\site-packages\\pygame\\mask.cp39-win_amd64.pyd',
   'EXTENSION'),
  ('pygame.joystick',
   'c:\\users\\manu\\venv\\lib\\site-packages\\pygame\\joystick.cp39-win_amd64.pyd',
   'EXTENSION'),
  ('pygame.bufferproxy',
   'c:\\users\\manu\\venv\\lib\\site-packages\\pygame\\bufferproxy.cp39-win_amd64.pyd',
   'EXTENSION'),
  ('pygame.surflock',
   'c:\\users\\manu\\venv\\lib\\site-packages\\pygame\\surflock.cp39-win_amd64.pyd',
   'EXTENSION'),
  ('pygame.rwobject',
   'c:\\users\\manu\\venv\\lib\\site-packages\\pygame\\rwobject.cp39-win_amd64.pyd',
   'EXTENSION'),
  ('VCRUNTIME140.dll',
   'C:\\Users\\Manu\\AppData\\Local\\Programs\\Python\\Python39\\VCRUNTIME140.dll',
   'BINARY'),
  ('api-ms-win-crt-runtime-l1-1-0.dll',
   'I:\\Program '
   'Files\\MikTex\\miktex\\bin\\x64\\api-ms-win-crt-runtime-l1-1-0.dll',
   'BINARY'),
  ('python39.dll',
   'C:\\Users\\Manu\\AppData\\Local\\Programs\\Python\\Python39\\python39.dll',
   'BINARY'),
  ('api-ms-win-crt-string-l1-1-0.dll',
   'I:\\Program '
   'Files\\MikTex\\miktex\\bin\\x64\\api-ms-win-crt-string-l1-1-0.dll',
   'BINARY'),
  ('libcrypto-1_1.dll',
   'C:\\Users\\Manu\\AppData\\Local\\Programs\\Python\\Python39\\DLLs\\libcrypto-1_1.dll',
   'BINARY'),
  ('libssl-1_1.dll',
   'C:\\Users\\Manu\\AppData\\Local\\Programs\\Python\\Python39\\DLLs\\libssl-1_1.dll',
   'BINARY'),
  ('api-ms-win-crt-stdio-l1-1-0.dll',
   'I:\\Program '
   'Files\\MikTex\\miktex\\bin\\x64\\api-ms-win-crt-stdio-l1-1-0.dll',
   'BINARY'),
  ('libffi-7.dll',
   'C:\\Users\\Manu\\AppData\\Local\\Programs\\Python\\Python39\\DLLs\\libffi-7.dll',
   'BINARY'),
  ('api-ms-win-crt-heap-l1-1-0.dll',
   'I:\\Program '
   'Files\\MikTex\\miktex\\bin\\x64\\api-ms-win-crt-heap-l1-1-0.dll',
   'BINARY'),
  ('api-ms-win-crt-utility-l1-1-0.dll',
   'I:\\Program '
   'Files\\MikTex\\miktex\\bin\\x64\\api-ms-win-crt-utility-l1-1-0.dll',
   'BINARY'),
  ('api-ms-win-crt-environment-l1-1-0.dll',
   'I:\\Program '
   'Files\\MikTex\\miktex\\bin\\x64\\api-ms-win-crt-environment-l1-1-0.dll',
   'BINARY'),
  ('api-ms-win-crt-convert-l1-1-0.dll',
   'I:\\Program '
   'Files\\MikTex\\miktex\\bin\\x64\\api-ms-win-crt-convert-l1-1-0.dll',
   'BINARY'),
  ('api-ms-win-crt-math-l1-1-0.dll',
   'I:\\Program '
   'Files\\MikTex\\miktex\\bin\\x64\\api-ms-win-crt-math-l1-1-0.dll',
   'BINARY'),
  ('api-ms-win-crt-locale-l1-1-0.dll',
   'I:\\Program '
   'Files\\MikTex\\miktex\\bin\\x64\\api-ms-win-crt-locale-l1-1-0.dll',
   'BINARY'),
  ('ucrtbase.dll',
   'I:\\Program Files\\MikTex\\miktex\\bin\\x64\\ucrtbase.dll',
   'BINARY'),
  ('api-ms-win-crt-conio-l1-1-0.dll',
   'I:\\Program '
   'Files\\MikTex\\miktex\\bin\\x64\\api-ms-win-crt-conio-l1-1-0.dll',
   'BINARY'),
  ('api-ms-win-crt-filesystem-l1-1-0.dll',
   'I:\\Program '
   'Files\\MikTex\\miktex\\bin\\x64\\api-ms-win-crt-filesystem-l1-1-0.dll',
   'BINARY'),
  ('api-ms-win-crt-time-l1-1-0.dll',
   'I:\\Program '
   'Files\\MikTex\\miktex\\bin\\x64\\api-ms-win-crt-time-l1-1-0.dll',
   'BINARY'),
  ('api-ms-win-crt-process-l1-1-0.dll',
   'I:\\Program '
   'Files\\MikTex\\miktex\\bin\\x64\\api-ms-win-crt-process-l1-1-0.dll',
   'BINARY'),
  ('api-ms-win-core-util-l1-1-0.dll',
   'I:\\Program '
   'Files\\MikTex\\miktex\\bin\\x64\\api-ms-win-core-util-l1-1-0.dll',
   'BINARY'),
  ('api-ms-win-core-synch-l1-2-0.dll',
   'I:\\Program '
   'Files\\MikTex\\miktex\\bin\\x64\\api-ms-win-core-synch-l1-2-0.dll',
   'BINARY'),
  ('api-ms-win-core-namedpipe-l1-1-0.dll',
   'I:\\Program '
   'Files\\MikTex\\miktex\\bin\\x64\\api-ms-win-core-namedpipe-l1-1-0.dll',
   'BINARY'),
  ('api-ms-win-core-datetime-l1-1-0.dll',
   'I:\\Program '
   'Files\\MikTex\\miktex\\bin\\x64\\api-ms-win-core-datetime-l1-1-0.dll',
   'BINARY'),
  ('api-ms-win-core-processthreads-l1-1-1.dll',
   'I:\\Program '
   'Files\\MikTex\\miktex\\bin\\x64\\api-ms-win-core-processthreads-l1-1-1.dll',
   'BINARY'),
  ('api-ms-win-core-file-l1-2-0.dll',
   'I:\\Program '
   'Files\\MikTex\\miktex\\bin\\x64\\api-ms-win-core-file-l1-2-0.dll',
   'BINARY'),
  ('api-ms-win-core-timezone-l1-1-0.dll',
   'I:\\Program '
   'Files\\MikTex\\miktex\\bin\\x64\\api-ms-win-core-timezone-l1-1-0.dll',
   'BINARY'),
  ('api-ms-win-core-errorhandling-l1-1-0.dll',
   'I:\\Program '
   'Files\\MikTex\\miktex\\bin\\x64\\api-ms-win-core-errorhandling-l1-1-0.dll',
   'BINARY'),
  ('api-ms-win-core-libraryloader-l1-1-0.dll',
   'I:\\Program '
   'Files\\MikTex\\miktex\\bin\\x64\\api-ms-win-core-libraryloader-l1-1-0.dll',
   'BINARY'),
  ('api-ms-win-core-string-l1-1-0.dll',
   'I:\\Program '
   'Files\\MikTex\\miktex\\bin\\x64\\api-ms-win-core-string-l1-1-0.dll',
   'BINARY'),
  ('api-ms-win-core-profile-l1-1-0.dll',
   'I:\\Program '
   'Files\\MikTex\\miktex\\bin\\x64\\api-ms-win-core-profile-l1-1-0.dll',
   'BINARY'),
  ('api-ms-win-core-file-l2-1-0.dll',
   'I:\\Program '
   'Files\\MikTex\\miktex\\bin\\x64\\api-ms-win-core-file-l2-1-0.dll',
   'BINARY'),
  ('api-ms-win-core-localization-l1-2-0.dll',
   'I:\\Program '
   'Files\\MikTex\\miktex\\bin\\x64\\api-ms-win-core-localization-l1-2-0.dll',
   'BINARY'),
  ('api-ms-win-core-synch-l1-1-0.dll',
   'I:\\Program '
   'Files\\MikTex\\miktex\\bin\\x64\\api-ms-win-core-synch-l1-1-0.dll',
   'BINARY'),
  ('api-ms-win-core-sysinfo-l1-1-0.dll',
   'I:\\Program '
   'Files\\MikTex\\miktex\\bin\\x64\\api-ms-win-core-sysinfo-l1-1-0.dll',
   'BINARY'),
  ('api-ms-win-core-heap-l1-1-0.dll',
   'I:\\Program '
   'Files\\MikTex\\miktex\\bin\\x64\\api-ms-win-core-heap-l1-1-0.dll',
   'BINARY'),
  ('api-ms-win-core-console-l1-1-0.dll',
   'I:\\Program '
   'Files\\MikTex\\miktex\\bin\\x64\\api-ms-win-core-console-l1-1-0.dll',
   'BINARY'),
  ('api-ms-win-core-handle-l1-1-0.dll',
   'I:\\Program '
   'Files\\MikTex\\miktex\\bin\\x64\\api-ms-win-core-handle-l1-1-0.dll',
   'BINARY'),
  ('api-ms-win-core-debug-l1-1-0.dll',
   'I:\\Program '
   'Files\\MikTex\\miktex\\bin\\x64\\api-ms-win-core-debug-l1-1-0.dll',
   'BINARY'),
  ('api-ms-win-core-rtlsupport-l1-1-0.dll',
   'I:\\Program '
   'Files\\MikTex\\miktex\\bin\\x64\\api-ms-win-core-rtlsupport-l1-1-0.dll',
   'BINARY'),
  ('api-ms-win-core-processenvironment-l1-1-0.dll',
   'I:\\Program '
   'Files\\MikTex\\miktex\\bin\\x64\\api-ms-win-core-processenvironment-l1-1-0.dll',
   'BINARY'),
  ('api-ms-win-core-file-l1-1-0.dll',
   'I:\\Program '
   'Files\\MikTex\\miktex\\bin\\x64\\api-ms-win-core-file-l1-1-0.dll',
   'BINARY'),
  ('api-ms-win-core-processthreads-l1-1-0.dll',
   'I:\\Program '
   'Files\\MikTex\\miktex\\bin\\x64\\api-ms-win-core-processthreads-l1-1-0.dll',
   'BINARY'),
  ('api-ms-win-core-memory-l1-1-0.dll',
   'I:\\Program '
   'Files\\MikTex\\miktex\\bin\\x64\\api-ms-win-core-memory-l1-1-0.dll',
   'BINARY'),
  ('api-ms-win-core-interlocked-l1-1-0.dll',
   'I:\\Program '
   'Files\\MikTex\\miktex\\bin\\x64\\api-ms-win-core-interlocked-l1-1-0.dll',
   'BINARY')],
 [],
 [],
 [('base_library.zip',
   'I:\\Daten\\Studium\\Master\\Masterarbeit\\code\\pylistory\\build\\main\\base_library.zip',
   'DATA'),
  ('pygame_menu\\resources\\fonts\\helvetica.ttf',
   'c:\\users\\manu\\venv\\lib\\site-packages\\pygame_menu\\resources\\fonts\\helvetica.ttf',
   'DATA'),
  ('pygame_menu\\resources\\fonts\\pt_serif.ttf',
   'c:\\users\\manu\\venv\\lib\\site-packages\\pygame_menu\\resources\\fonts\\pt_serif.ttf',
   'DATA'),
  ('pygame_menu\\resources\\fonts\\munro.ttf',
   'c:\\users\\manu\\venv\\lib\\site-packages\\pygame_menu\\resources\\fonts\\munro.ttf',
   'DATA'),
  ('pygame_menu\\resources\\sounds\\open_menu.ogg',
   'c:\\users\\manu\\venv\\lib\\site-packages\\pygame_menu\\resources\\sounds\\open_menu.ogg',
   'DATA'),
  ('pygame_menu\\resources\\fonts\\opensans_bold.ttf',
   'c:\\users\\manu\\venv\\lib\\site-packages\\pygame_menu\\resources\\fonts\\opensans_bold.ttf',
   'DATA'),
  ('pygame_menu\\resources\\images\\gray_lines.png',
   'c:\\users\\manu\\venv\\lib\\site-packages\\pygame_menu\\resources\\images\\gray_lines.png',
   'DATA'),
  ('pygame_menu\\resources\\sounds\\widget_selection.ogg',
   'c:\\users\\manu\\venv\\lib\\site-packages\\pygame_menu\\resources\\sounds\\widget_selection.ogg',
   'DATA'),
  ('pygame_menu\\resources\\sounds\\error.ogg',
   'c:\\users\\manu\\venv\\lib\\site-packages\\pygame_menu\\resources\\sounds\\error.ogg',
   'DATA'),
  ('pygame_menu\\resources\\fonts\\opensans_regular.ttf',
   'c:\\users\\manu\\venv\\lib\\site-packages\\pygame_menu\\resources\\fonts\\opensans_regular.ttf',
   'DATA'),
  ('pygame_menu\\resources\\fonts\\8bit.ttf',
   'c:\\users\\manu\\venv\\lib\\site-packages\\pygame_menu\\resources\\fonts\\8bit.ttf',
   'DATA'),
  ('pygame_menu\\resources\\fonts\\comic_neue.ttf',
   'c:\\users\\manu\\venv\\lib\\site-packages\\pygame_menu\\resources\\fonts\\comic_neue.ttf',
   'DATA'),
  ('pygame_menu\\resources\\sounds\\click_mouse.ogg',
   'c:\\users\\manu\\venv\\lib\\site-packages\\pygame_menu\\resources\\sounds\\click_mouse.ogg',
   'DATA'),
  ('pygame_menu\\resources\\sounds\\event.ogg',
   'c:\\users\\manu\\venv\\lib\\site-packages\\pygame_menu\\resources\\sounds\\event.ogg',
   'DATA'),
  ('pygame\\freesansbold.ttf',
   'c:\\users\\manu\\venv\\lib\\site-packages\\pygame\\freesansbold.ttf',
   'DATA'),
  ('pygame_menu\\resources\\fonts\\nevis.ttf',
   'c:\\users\\manu\\venv\\lib\\site-packages\\pygame_menu\\resources\\fonts\\nevis.ttf',
   'DATA'),
  ('pygame_menu\\resources\\fonts\\franchise.ttf',
   'c:\\users\\manu\\venv\\lib\\site-packages\\pygame_menu\\resources\\fonts\\franchise.ttf',
   'DATA'),
  ('pygame_menu\\resources\\images\\metal.png',
   'c:\\users\\manu\\venv\\lib\\site-packages\\pygame_menu\\resources\\images\\metal.png',
   'DATA'),
  ('pygame_menu\\resources\\sounds\\key_delete.ogg',
   'c:\\users\\manu\\venv\\lib\\site-packages\\pygame_menu\\resources\\sounds\\key_delete.ogg',
   'DATA'),
  ('pygame_menu\\resources\\images\\pygame_menu.png',
   'c:\\users\\manu\\venv\\lib\\site-packages\\pygame_menu\\resources\\images\\pygame_menu.png',
   'DATA'),
  ('pygame_menu\\resources\\sounds\\key_add.ogg',
   'c:\\users\\manu\\venv\\lib\\site-packages\\pygame_menu\\resources\\sounds\\key_add.ogg',
   'DATA'),
  ('pygame\\pygame_icon.bmp',
   'c:\\users\\manu\\venv\\lib\\site-packages\\pygame\\pygame_icon.bmp',
   'DATA'),
  ('pygame_menu\\resources\\sounds\\close_menu.ogg',
   'c:\\users\\manu\\venv\\lib\\site-packages\\pygame_menu\\resources\\sounds\\close_menu.ogg',
   'DATA'),
  ('pygame_menu\\resources\\images\\carbon_fiber.png',
   'c:\\users\\manu\\venv\\lib\\site-packages\\pygame_menu\\resources\\images\\carbon_fiber.png',
   'DATA'),
  ('pygame_menu\\resources\\fonts\\opensans_light.ttf',
   'c:\\users\\manu\\venv\\lib\\site-packages\\pygame_menu\\resources\\fonts\\opensans_light.ttf',
   'DATA'),
  ('pygame_menu\\resources\\fonts\\bebas.ttf',
   'c:\\users\\manu\\venv\\lib\\site-packages\\pygame_menu\\resources\\fonts\\bebas.ttf',
   'DATA'),
  ('pygame_menu\\resources\\sounds\\event_error.ogg',
   'c:\\users\\manu\\venv\\lib\\site-packages\\pygame_menu\\resources\\sounds\\event_error.ogg',
   'DATA'),
  ('pygame_menu\\resources\\fonts\\opensans_italic.ttf',
   'c:\\users\\manu\\venv\\lib\\site-packages\\pygame_menu\\resources\\fonts\\opensans_italic.ttf',
   'DATA'),
  ('pygame_menu\\resources\\images\\wallpaper.jpg',
   'c:\\users\\manu\\venv\\lib\\site-packages\\pygame_menu\\resources\\images\\wallpaper.jpg',
   'DATA'),
  ('Include\\pyconfig.h',
   'C:\\Users\\Manu\\AppData\\Local\\Programs\\Python\\Python39\\Include\\pyconfig.h',
   'DATA')],
 [])
