([('main.exe',
   'I:\\Daten\\Studium\\Master\\Masterarbeit\\code\\pylistory\\build\\main\\main.exe',
   'EXECUTABLE'),
  ('main.exe.manifest',
   'I:\\Daten\\Studium\\Master\\Masterarbeit\\code\\pylistory\\build\\main\\main.exe.manifest',
   'BINARY'),
  ('libogg-0.dll',
   'c:\\users\\manu\\venv\\lib\\site-packages\\pygame\\libogg-0.dll',
   'BINARY'),
  ('libvorbis-0.dll',
   'c:\\users\\manu\\venv\\lib\\site-packages\\pygame\\libvorbis-0.dll',
   'BINARY'),
  ('SDL2_ttf.dll',
   'c:\\users\\manu\\venv\\lib\\site-packages\\pygame\\SDL2_ttf.dll',
   'BINARY'),
  ('libwebp-7.dll',
   'c:\\users\\manu\\venv\\lib\\site-packages\\pygame\\libwebp-7.dll',
   'BINARY'),
  ('libjpeg-9.dll',
   'c:\\users\\manu\\venv\\lib\\site-packages\\pygame\\libjpeg-9.dll',
   'BINARY'),
  ('libvorbisfile-3.dll',
   'c:\\users\\manu\\venv\\lib\\site-packages\\pygame\\libvorbisfile-3.dll',
   'BINARY'),
  ('libfreetype-6.dll',
   'c:\\users\\manu\\venv\\lib\\site-packages\\pygame\\libfreetype-6.dll',
   'BINARY'),
  ('SDL2.dll',
   'c:\\users\\manu\\venv\\lib\\site-packages\\pygame\\SDL2.dll',
   'BINARY'),
  ('SDL2_mixer.dll',
   'c:\\users\\manu\\venv\\lib\\site-packages\\pygame\\SDL2_mixer.dll',
   'BINARY'),
  ('libopus-0.dll',
   'c:\\users\\manu\\venv\\lib\\site-packages\\pygame\\libopus-0.dll',
   'BINARY'),
  ('libmpg123-0.dll',
   'c:\\users\\manu\\venv\\lib\\site-packages\\pygame\\libmpg123-0.dll',
   'BINARY'),
  ('libmodplug-1.dll',
   'c:\\users\\manu\\venv\\lib\\site-packages\\pygame\\libmodplug-1.dll',
   'BINARY'),
  ('libFLAC-8.dll',
   'c:\\users\\manu\\venv\\lib\\site-packages\\pygame\\libFLAC-8.dll',
   'BINARY'),
  ('SDL2_image.dll',
   'c:\\users\\manu\\venv\\lib\\site-packages\\pygame\\SDL2_image.dll',
   'BINARY'),
  ('libpng16-16.dll',
   'c:\\users\\manu\\venv\\lib\\site-packages\\pygame\\libpng16-16.dll',
   'BINARY'),
  ('libopusfile-0.dll',
   'c:\\users\\manu\\venv\\lib\\site-packages\\pygame\\libopusfile-0.dll',
   'BINARY'),
  ('portmidi.dll',
   'c:\\users\\manu\\venv\\lib\\site-packages\\pygame\\portmidi.dll',
   'BINARY'),
  ('zlib1.dll',
   'c:\\users\\manu\\venv\\lib\\site-packages\\pygame\\zlib1.dll',
   'BINARY'),
  ('libtiff-5.dll',
   'c:\\users\\manu\\venv\\lib\\site-packages\\pygame\\libtiff-5.dll',
   'BINARY'),
  ('select',
   'C:\\Users\\Manu\\AppData\\Local\\Programs\\Python\\Python39\\DLLs\\select.pyd',
   'EXTENSION'),
  ('_overlapped',
   'C:\\Users\\Manu\\AppData\\Local\\Programs\\Python\\Python39\\DLLs\\_overlapped.pyd',
   'EXTENSION'),
  ('_ssl',
   'C:\\Users\\Manu\\AppData\\Local\\Programs\\Python\\Python39\\DLLs\\_ssl.pyd',
   'EXTENSION'),
  ('_asyncio',
   'C:\\Users\\Manu\\AppData\\Local\\Programs\\Python\\Python39\\DLLs\\_asyncio.pyd',
   'EXTENSION'),
  ('_queue',
   'C:\\Users\\Manu\\AppData\\Local\\Programs\\Python\\Python39\\DLLs\\_queue.pyd',
   'EXTENSION'),
  ('unicodedata',
   'C:\\Users\\Manu\\AppData\\Local\\Programs\\Python\\Python39\\DLLs\\unicodedata.pyd',
   'EXTENSION'),
  ('_ctypes',
   'C:\\Users\\Manu\\AppData\\Local\\Programs\\Python\\Python39\\DLLs\\_ctypes.pyd',
   'EXTENSION'),
  ('_multiprocessing',
   'C:\\Users\\Manu\\AppData\\Local\\Programs\\Python\\Python39\\DLLs\\_multiprocessing.pyd',
   'EXTENSION'),
  ('pyexpat',
   'C:\\Users\\Manu\\AppData\\Local\\Programs\\Python\\Python39\\DLLs\\pyexpat.pyd',
   'EXTENSION'),
  ('_decimal',
   'C:\\Users\\Manu\\AppData\\Local\\Programs\\Python\\Python39\\DLLs\\_decimal.pyd',
   'EXTENSION'),
  ('_hashlib',
   'C:\\Users\\Manu\\AppData\\Local\\Programs\\Python\\Python39\\DLLs\\_hashlib.pyd',
   'EXTENSION'),
  ('_uuid',
   'C:\\Users\\Manu\\AppData\\Local\\Programs\\Python\\Python39\\DLLs\\_uuid.pyd',
   'EXTENSION'),
  ('_socket',
   'C:\\Users\\Manu\\AppData\\Local\\Programs\\Python\\Python39\\DLLs\\_socket.pyd',
   'EXTENSION'),
  ('_lzma',
   'C:\\Users\\Manu\\AppData\\Local\\Programs\\Python\\Python39\\DLLs\\_lzma.pyd',
   'EXTENSION'),
  ('_bz2',
   'C:\\Users\\Manu\\AppData\\Local\\Programs\\Python\\Python39\\DLLs\\_bz2.pyd',
   'EXTENSION'),
  ('pygame.color',
   'c:\\users\\manu\\venv\\lib\\site-packages\\pygame\\color.cp39-win_amd64.pyd',
   'EXTENSION'),
  ('pygame.rect',
   'c:\\users\\manu\\venv\\lib\\site-packages\\pygame\\rect.cp39-win_amd64.pyd',
   'EXTENSION'),
  ('pygame.constants',
   'c:\\users\\manu\\venv\\lib\\site-packages\\pygame\\constants.cp39-win_amd64.pyd',
   'EXTENSION'),
  ('pygame.gfxdraw',
   'c:\\users\\manu\\venv\\lib\\site-packages\\pygame\\gfxdraw.cp39-win_amd64.pyd',
   'EXTENSION'),
  ('pygame.mixer',
   'c:\\users\\manu\\venv\\lib\\site-packages\\pygame\\mixer.cp39-win_amd64.pyd',
   'EXTENSION'),
  ('pygame.font',
   'c:\\users\\manu\\venv\\lib\\site-packages\\pygame\\font.cp39-win_amd64.pyd',
   'EXTENSION'),
  ('pygame.base',
   'c:\\users\\manu\\venv\\lib\\site-packages\\pygame\\base.cp39-win_amd64.pyd',
   'EXTENSION'),
  ('pygame.transform',
   'c:\\users\\manu\\venv\\lib\\site-packages\\pygame\\transform.cp39-win_amd64.pyd',
   'EXTENSION'),
  ('_elementtree',
   'C:\\Users\\Manu\\AppData\\Local\\Programs\\Python\\Python39\\DLLs\\_elementtree.pyd',
   'EXTENSION'),
  ('pygame.math',
   'c:\\users\\manu\\venv\\lib\\site-packages\\pygame\\math.cp39-win_amd64.pyd',
   'EXTENSION'),
  ('pygame.event',
   'c:\\users\\manu\\venv\\lib\\site-packages\\pygame\\event.cp39-win_amd64.pyd',
   'EXTENSION'),
  ('pygame.draw',
   'c:\\users\\manu\\venv\\lib\\site-packages\\pygame\\draw.cp39-win_amd64.pyd',
   'EXTENSION'),
  ('pygame.image',
   'c:\\users\\manu\\venv\\lib\\site-packages\\pygame\\image.cp39-win_amd64.pyd',
   'EXTENSION'),
  ('pygame.pixelcopy',
   'c:\\users\\manu\\venv\\lib\\site-packages\\pygame\\pixelcopy.cp39-win_amd64.pyd',
   'EXTENSION'),
  ('pygame.mouse',
   'c:\\users\\manu\\venv\\lib\\site-packages\\pygame\\mouse.cp39-win_amd64.pyd',
   'EXTENSION'),
  ('pygame.key',
   'c:\\users\\manu\\venv\\lib\\site-packages\\pygame\\key.cp39-win_amd64.pyd',
   'EXTENSION'),
  ('pygame.display',
   'c:\\users\\manu\\venv\\lib\\site-packages\\pygame\\display.cp39-win_amd64.pyd',
   'EXTENSION'),
  ('pygame.surface',
   'c:\\users\\manu\\venv\\lib\\site-packages\\pygame\\surface.cp39-win_amd64.pyd',
   'EXTENSION'),
  ('pygame.imageext',
   'c:\\users\\manu\\venv\\lib\\site-packages\\pygame\\imageext.cp39-win_amd64.pyd',
   'EXTENSION'),
  ('pygame.fastevent',
   'c:\\users\\manu\\venv\\lib\\site-packages\\pygame\\fastevent.cp39-win_amd64.pyd',
   'EXTENSION'),
  ('pygame.scrap',
   'c:\\users\\manu\\venv\\lib\\site-packages\\pygame\\scrap.cp39-win_amd64.pyd',
   'EXTENSION'),
  ('pygame.mixer_music',
   'c:\\users\\manu\\venv\\lib\\site-packages\\pygame\\mixer_music.cp39-win_amd64.pyd',
   'EXTENSION'),
  ('pygame._freetype',
   'c:\\users\\manu\\venv\\lib\\site-packages\\pygame\\_freetype.cp39-win_amd64.pyd',
   'EXTENSION'),
  ('pygame.time',
   'c:\\users\\manu\\venv\\lib\\site-packages\\pygame\\time.cp39-win_amd64.pyd',
   'EXTENSION'),
  ('pygame.pixelarray',
   'c:\\users\\manu\\venv\\lib\\site-packages\\pygame\\pixelarray.cp39-win_amd64.pyd',
   'EXTENSION'),
  ('pygame.mask',
   'c:\\users\\manu\\venv\\lib\\site-packages\\pygame\\mask.cp39-win_amd64.pyd',
   'EXTENSION'),
  ('pygame.joystick',
   'c:\\users\\manu\\venv\\lib\\site-packages\\pygame\\joystick.cp39-win_amd64.pyd',
   'EXTENSION'),
  ('pygame.bufferproxy',
   'c:\\users\\manu\\venv\\lib\\site-packages\\pygame\\bufferproxy.cp39-win_amd64.pyd',
   'EXTENSION'),
  ('pygame.surflock',
   'c:\\users\\manu\\venv\\lib\\site-packages\\pygame\\surflock.cp39-win_amd64.pyd',
   'EXTENSION'),
  ('pygame.rwobject',
   'c:\\users\\manu\\venv\\lib\\site-packages\\pygame\\rwobject.cp39-win_amd64.pyd',
   'EXTENSION'),
  ('VCRUNTIME140.dll',
   'C:\\Users\\Manu\\AppData\\Local\\Programs\\Python\\Python39\\VCRUNTIME140.dll',
   'BINARY'),
  ('api-ms-win-crt-runtime-l1-1-0.dll',
   'I:\\Program '
   'Files\\MikTex\\miktex\\bin\\x64\\api-ms-win-crt-runtime-l1-1-0.dll',
   'BINARY'),
  ('python39.dll',
   'C:\\Users\\Manu\\AppData\\Local\\Programs\\Python\\Python39\\python39.dll',
   'BINARY'),
  ('api-ms-win-crt-string-l1-1-0.dll',
   'I:\\Program '
   'Files\\MikTex\\miktex\\bin\\x64\\api-ms-win-crt-string-l1-1-0.dll',
   'BINARY'),
  ('libcrypto-1_1.dll',
   'C:\\Users\\Manu\\AppData\\Local\\Programs\\Python\\Python39\\DLLs\\libcrypto-1_1.dll',
   'BINARY'),
  ('libssl-1_1.dll',
   'C:\\Users\\Manu\\AppData\\Local\\Programs\\Python\\Python39\\DLLs\\libssl-1_1.dll',
   'BINARY'),
  ('api-ms-win-crt-stdio-l1-1-0.dll',
   'I:\\Program '
   'Files\\MikTex\\miktex\\bin\\x64\\api-ms-win-crt-stdio-l1-1-0.dll',
   'BINARY'),
  ('libffi-7.dll',
   'C:\\Users\\Manu\\AppData\\Local\\Programs\\Python\\Python39\\DLLs\\libffi-7.dll',
   'BINARY'),
  ('api-ms-win-crt-heap-l1-1-0.dll',
   'I:\\Program '
   'Files\\MikTex\\miktex\\bin\\x64\\api-ms-win-crt-heap-l1-1-0.dll',
   'BINARY'),
  ('api-ms-win-crt-utility-l1-1-0.dll',
   'I:\\Program '
   'Files\\MikTex\\miktex\\bin\\x64\\api-ms-win-crt-utility-l1-1-0.dll',
   'BINARY'),
  ('api-ms-win-crt-environment-l1-1-0.dll',
   'I:\\Program '
   'Files\\MikTex\\miktex\\bin\\x64\\api-ms-win-crt-environment-l1-1-0.dll',
   'BINARY'),
  ('api-ms-win-crt-convert-l1-1-0.dll',
   'I:\\Program '
   'Files\\MikTex\\miktex\\bin\\x64\\api-ms-win-crt-convert-l1-1-0.dll',
   'BINARY'),
  ('api-ms-win-crt-math-l1-1-0.dll',
   'I:\\Program '
   'Files\\MikTex\\miktex\\bin\\x64\\api-ms-win-crt-math-l1-1-0.dll',
   'BINARY'),
  ('api-ms-win-crt-locale-l1-1-0.dll',
   'I:\\Program '
   'Files\\MikTex\\miktex\\bin\\x64\\api-ms-win-crt-locale-l1-1-0.dll',
   'BINARY'),
  ('ucrtbase.dll',
   'I:\\Program Files\\MikTex\\miktex\\bin\\x64\\ucrtbase.dll',
   'BINARY'),
  ('api-ms-win-crt-conio-l1-1-0.dll',
   'I:\\Program '
   'Files\\MikTex\\miktex\\bin\\x64\\api-ms-win-crt-conio-l1-1-0.dll',
   'BINARY'),
  ('api-ms-win-crt-filesystem-l1-1-0.dll',
   'I:\\Program '
   'Files\\MikTex\\miktex\\bin\\x64\\api-ms-win-crt-filesystem-l1-1-0.dll',
   'BINARY'),
  ('api-ms-win-crt-time-l1-1-0.dll',
   'I:\\Program '
   'Files\\MikTex\\miktex\\bin\\x64\\api-ms-win-crt-time-l1-1-0.dll',
   'BINARY'),
  ('api-ms-win-crt-process-l1-1-0.dll',
   'I:\\Program '
   'Files\\MikTex\\miktex\\bin\\x64\\api-ms-win-crt-process-l1-1-0.dll',
   'BINARY'),
  ('api-ms-win-core-util-l1-1-0.dll',
   'I:\\Program '
   'Files\\MikTex\\miktex\\bin\\x64\\api-ms-win-core-util-l1-1-0.dll',
   'BINARY'),
  ('api-ms-win-core-synch-l1-2-0.dll',
   'I:\\Program '
   'Files\\MikTex\\miktex\\bin\\x64\\api-ms-win-core-synch-l1-2-0.dll',
   'BINARY'),
  ('api-ms-win-core-namedpipe-l1-1-0.dll',
   'I:\\Program '
   'Files\\MikTex\\miktex\\bin\\x64\\api-ms-win-core-namedpipe-l1-1-0.dll',
   'BINARY'),
  ('api-ms-win-core-datetime-l1-1-0.dll',
   'I:\\Program '
   'Files\\MikTex\\miktex\\bin\\x64\\api-ms-win-core-datetime-l1-1-0.dll',
   'BINARY'),
  ('api-ms-win-core-processthreads-l1-1-1.dll',
   'I:\\Program '
   'Files\\MikTex\\miktex\\bin\\x64\\api-ms-win-core-processthreads-l1-1-1.dll',
   'BINARY'),
  ('api-ms-win-core-file-l1-2-0.dll',
   'I:\\Program '
   'Files\\MikTex\\miktex\\bin\\x64\\api-ms-win-core-file-l1-2-0.dll',
   'BINARY'),
  ('api-ms-win-core-timezone-l1-1-0.dll',
   'I:\\Program '
   'Files\\MikTex\\miktex\\bin\\x64\\api-ms-win-core-timezone-l1-1-0.dll',
   'BINARY'),
  ('api-ms-win-core-errorhandling-l1-1-0.dll',
   'I:\\Program '
   'Files\\MikTex\\miktex\\bin\\x64\\api-ms-win-core-errorhandling-l1-1-0.dll',
   'BINARY'),
  ('api-ms-win-core-libraryloader-l1-1-0.dll',
   'I:\\Program '
   'Files\\MikTex\\miktex\\bin\\x64\\api-ms-win-core-libraryloader-l1-1-0.dll',
   'BINARY'),
  ('api-ms-win-core-string-l1-1-0.dll',
   'I:\\Program '
   'Files\\MikTex\\miktex\\bin\\x64\\api-ms-win-core-string-l1-1-0.dll',
   'BINARY'),
  ('api-ms-win-core-profile-l1-1-0.dll',
   'I:\\Program '
   'Files\\MikTex\\miktex\\bin\\x64\\api-ms-win-core-profile-l1-1-0.dll',
   'BINARY'),
  ('api-ms-win-core-file-l2-1-0.dll',
   'I:\\Program '
   'Files\\MikTex\\miktex\\bin\\x64\\api-ms-win-core-file-l2-1-0.dll',
   'BINARY'),
  ('api-ms-win-core-localization-l1-2-0.dll',
   'I:\\Program '
   'Files\\MikTex\\miktex\\bin\\x64\\api-ms-win-core-localization-l1-2-0.dll',
   'BINARY'),
  ('api-ms-win-core-synch-l1-1-0.dll',
   'I:\\Program '
   'Files\\MikTex\\miktex\\bin\\x64\\api-ms-win-core-synch-l1-1-0.dll',
   'BINARY'),
  ('api-ms-win-core-sysinfo-l1-1-0.dll',
   'I:\\Program '
   'Files\\MikTex\\miktex\\bin\\x64\\api-ms-win-core-sysinfo-l1-1-0.dll',
   'BINARY'),
  ('api-ms-win-core-heap-l1-1-0.dll',
   'I:\\Program '
   'Files\\MikTex\\miktex\\bin\\x64\\api-ms-win-core-heap-l1-1-0.dll',
   'BINARY'),
  ('api-ms-win-core-console-l1-1-0.dll',
   'I:\\Program '
   'Files\\MikTex\\miktex\\bin\\x64\\api-ms-win-core-console-l1-1-0.dll',
   'BINARY'),
  ('api-ms-win-core-handle-l1-1-0.dll',
   'I:\\Program '
   'Files\\MikTex\\miktex\\bin\\x64\\api-ms-win-core-handle-l1-1-0.dll',
   'BINARY'),
  ('api-ms-win-core-debug-l1-1-0.dll',
   'I:\\Program '
   'Files\\MikTex\\miktex\\bin\\x64\\api-ms-win-core-debug-l1-1-0.dll',
   'BINARY'),
  ('api-ms-win-core-rtlsupport-l1-1-0.dll',
   'I:\\Program '
   'Files\\MikTex\\miktex\\bin\\x64\\api-ms-win-core-rtlsupport-l1-1-0.dll',
   'BINARY'),
  ('api-ms-win-core-processenvironment-l1-1-0.dll',
   'I:\\Program '
   'Files\\MikTex\\miktex\\bin\\x64\\api-ms-win-core-processenvironment-l1-1-0.dll',
   'BINARY'),
  ('api-ms-win-core-file-l1-1-0.dll',
   'I:\\Program '
   'Files\\MikTex\\miktex\\bin\\x64\\api-ms-win-core-file-l1-1-0.dll',
   'BINARY'),
  ('api-ms-win-core-processthreads-l1-1-0.dll',
   'I:\\Program '
   'Files\\MikTex\\miktex\\bin\\x64\\api-ms-win-core-processthreads-l1-1-0.dll',
   'BINARY'),
  ('api-ms-win-core-memory-l1-1-0.dll',
   'I:\\Program '
   'Files\\MikTex\\miktex\\bin\\x64\\api-ms-win-core-memory-l1-1-0.dll',
   'BINARY'),
  ('api-ms-win-core-interlocked-l1-1-0.dll',
   'I:\\Program '
   'Files\\MikTex\\miktex\\bin\\x64\\api-ms-win-core-interlocked-l1-1-0.dll',
   'BINARY'),
  ('base_library.zip',
   'I:\\Daten\\Studium\\Master\\Masterarbeit\\code\\pylistory\\build\\main\\base_library.zip',
   'DATA'),
  ('pygame_menu\\resources\\fonts\\helvetica.ttf',
   'c:\\users\\manu\\venv\\lib\\site-packages\\pygame_menu\\resources\\fonts\\helvetica.ttf',
   'DATA'),
  ('pygame_menu\\resources\\fonts\\pt_serif.ttf',
   'c:\\users\\manu\\venv\\lib\\site-packages\\pygame_menu\\resources\\fonts\\pt_serif.ttf',
   'DATA'),
  ('pygame_menu\\resources\\fonts\\munro.ttf',
   'c:\\users\\manu\\venv\\lib\\site-packages\\pygame_menu\\resources\\fonts\\munro.ttf',
   'DATA'),
  ('pygame_menu\\resources\\sounds\\open_menu.ogg',
   'c:\\users\\manu\\venv\\lib\\site-packages\\pygame_menu\\resources\\sounds\\open_menu.ogg',
   'DATA'),
  ('pygame_menu\\resources\\fonts\\opensans_bold.ttf',
   'c:\\users\\manu\\venv\\lib\\site-packages\\pygame_menu\\resources\\fonts\\opensans_bold.ttf',
   'DATA'),
  ('pygame_menu\\resources\\images\\gray_lines.png',
   'c:\\users\\manu\\venv\\lib\\site-packages\\pygame_menu\\resources\\images\\gray_lines.png',
   'DATA'),
  ('pygame_menu\\resources\\sounds\\widget_selection.ogg',
   'c:\\users\\manu\\venv\\lib\\site-packages\\pygame_menu\\resources\\sounds\\widget_selection.ogg',
   'DATA'),
  ('pygame_menu\\resources\\sounds\\error.ogg',
   'c:\\users\\manu\\venv\\lib\\site-packages\\pygame_menu\\resources\\sounds\\error.ogg',
   'DATA'),
  ('pygame_menu\\resources\\fonts\\opensans_regular.ttf',
   'c:\\users\\manu\\venv\\lib\\site-packages\\pygame_menu\\resources\\fonts\\opensans_regular.ttf',
   'DATA'),
  ('pygame_menu\\resources\\fonts\\8bit.ttf',
   'c:\\users\\manu\\venv\\lib\\site-packages\\pygame_menu\\resources\\fonts\\8bit.ttf',
   'DATA'),
  ('pygame_menu\\resources\\fonts\\comic_neue.ttf',
   'c:\\users\\manu\\venv\\lib\\site-packages\\pygame_menu\\resources\\fonts\\comic_neue.ttf',
   'DATA'),
  ('pygame_menu\\resources\\sounds\\click_mouse.ogg',
   'c:\\users\\manu\\venv\\lib\\site-packages\\pygame_menu\\resources\\sounds\\click_mouse.ogg',
   'DATA'),
  ('pygame_menu\\resources\\sounds\\event.ogg',
   'c:\\users\\manu\\venv\\lib\\site-packages\\pygame_menu\\resources\\sounds\\event.ogg',
   'DATA'),
  ('pygame\\freesansbold.ttf',
   'c:\\users\\manu\\venv\\lib\\site-packages\\pygame\\freesansbold.ttf',
   'DATA'),
  ('pygame_menu\\resources\\fonts\\nevis.ttf',
   'c:\\users\\manu\\venv\\lib\\site-packages\\pygame_menu\\resources\\fonts\\nevis.ttf',
   'DATA'),
  ('pygame_menu\\resources\\fonts\\franchise.ttf',
   'c:\\users\\manu\\venv\\lib\\site-packages\\pygame_menu\\resources\\fonts\\franchise.ttf',
   'DATA'),
  ('pygame_menu\\resources\\images\\metal.png',
   'c:\\users\\manu\\venv\\lib\\site-packages\\pygame_menu\\resources\\images\\metal.png',
   'DATA'),
  ('pygame_menu\\resources\\sounds\\key_delete.ogg',
   'c:\\users\\manu\\venv\\lib\\site-packages\\pygame_menu\\resources\\sounds\\key_delete.ogg',
   'DATA'),
  ('pygame_menu\\resources\\images\\pygame_menu.png',
   'c:\\users\\manu\\venv\\lib\\site-packages\\pygame_menu\\resources\\images\\pygame_menu.png',
   'DATA'),
  ('pygame_menu\\resources\\sounds\\key_add.ogg',
   'c:\\users\\manu\\venv\\lib\\site-packages\\pygame_menu\\resources\\sounds\\key_add.ogg',
   'DATA'),
  ('pygame\\pygame_icon.bmp',
   'c:\\users\\manu\\venv\\lib\\site-packages\\pygame\\pygame_icon.bmp',
   'DATA'),
  ('pygame_menu\\resources\\sounds\\close_menu.ogg',
   'c:\\users\\manu\\venv\\lib\\site-packages\\pygame_menu\\resources\\sounds\\close_menu.ogg',
   'DATA'),
  ('pygame_menu\\resources\\images\\carbon_fiber.png',
   'c:\\users\\manu\\venv\\lib\\site-packages\\pygame_menu\\resources\\images\\carbon_fiber.png',
   'DATA'),
  ('pygame_menu\\resources\\fonts\\opensans_light.ttf',
   'c:\\users\\manu\\venv\\lib\\site-packages\\pygame_menu\\resources\\fonts\\opensans_light.ttf',
   'DATA'),
  ('pygame_menu\\resources\\fonts\\bebas.ttf',
   'c:\\users\\manu\\venv\\lib\\site-packages\\pygame_menu\\resources\\fonts\\bebas.ttf',
   'DATA'),
  ('pygame_menu\\resources\\sounds\\event_error.ogg',
   'c:\\users\\manu\\venv\\lib\\site-packages\\pygame_menu\\resources\\sounds\\event_error.ogg',
   'DATA'),
  ('pygame_menu\\resources\\fonts\\opensans_italic.ttf',
   'c:\\users\\manu\\venv\\lib\\site-packages\\pygame_menu\\resources\\fonts\\opensans_italic.ttf',
   'DATA'),
  ('pygame_menu\\resources\\images\\wallpaper.jpg',
   'c:\\users\\manu\\venv\\lib\\site-packages\\pygame_menu\\resources\\images\\wallpaper.jpg',
   'DATA'),
  ('Include\\pyconfig.h',
   'C:\\Users\\Manu\\AppData\\Local\\Programs\\Python\\Python39\\Include\\pyconfig.h',
   'DATA'),
  ('data\\menus\\__pycache__\\__init__.cpython-38.pyc',
   'data\\menus\\__pycache__\\__init__.cpython-38.pyc',
   'DATA'),
  ('data\\__pycache__\\map.cpython-38.pyc',
   'data\\__pycache__\\map.cpython-38.pyc',
   'DATA'),
  ('data\\__pycache__\\paths.cpython-38.pyc',
   'data\\__pycache__\\paths.cpython-38.pyc',
   'DATA'),
  ('resources\\img\\maps\\GB RPG Soldier FREE files\\GB RPG Soldier FREE '
   'files\\RUN\\GB_Soldier_RUN_SOUTH_strip4.png',
   'resources\\img\\maps\\GB RPG Soldier FREE files\\GB RPG Soldier FREE '
   'files\\RUN\\GB_Soldier_RUN_SOUTH_strip4.png',
   'DATA'),
  ('resources\\img\\maps\\Tileset_16x16_1.png',
   'resources\\img\\maps\\Tileset_16x16_1.png',
   'DATA'),
  ('resources\\img\\maps\\GB RPG Soldier FREE files\\GB RPG Soldier FREE '
   'files\\ATTACK KICK single frames\\GB_Soldier_ATTACKKICK_WEST.png',
   'resources\\img\\maps\\GB RPG Soldier FREE files\\GB RPG Soldier FREE '
   'files\\ATTACK KICK single frames\\GB_Soldier_ATTACKKICK_WEST.png',
   'DATA'),
  ('resources\\img\\maps\\GB RPG Soldier FREE files\\GB RPG Soldier FREE '
   'files\\ATTACK PUNCH\\GB_Soldier_ATTACKPUNCH_NORTH.png',
   'resources\\img\\maps\\GB RPG Soldier FREE files\\GB RPG Soldier FREE '
   'files\\ATTACK PUNCH\\GB_Soldier_ATTACKPUNCH_NORTH.png',
   'DATA'),
  ('resources\\img\\portraits\\Icons_01.png',
   'resources\\img\\portraits\\Icons_01.png',
   'DATA'),
  ('resources\\img\\maps\\GB RPG Soldier FREE files\\GB RPG Soldier FREE '
   'files\\RUN\\GB_Soldier_RUN_EAST_strip4.png',
   'resources\\img\\maps\\GB RPG Soldier FREE files\\GB RPG Soldier FREE '
   'files\\RUN\\GB_Soldier_RUN_EAST_strip4.png',
   'DATA'),
  ('resources\\img\\portraits\\kreuzer.png',
   'resources\\img\\portraits\\kreuzer.png',
   'DATA'),
  ('data\\__pycache__\\map.cpython-39.pyc',
   'data\\__pycache__\\map.cpython-39.pyc',
   'DATA'),
  ('resources\\img\\machtergreifung.jpg',
   'resources\\img\\machtergreifung.jpg',
   'DATA'),
  ('resources\\sounds\\kenney_interfacesounds.zip',
   'resources\\sounds\\kenney_interfacesounds.zip',
   'DATA'),
  ('resources\\img\\maps\\GB RPG Soldier FREE files\\GB RPG Soldier FREE '
   'files\\IDLE\\GB_Soldier_IDLE_NORTH_strip4.png',
   'resources\\img\\maps\\GB RPG Soldier FREE files\\GB RPG Soldier FREE '
   'files\\IDLE\\GB_Soldier_IDLE_NORTH_strip4.png',
   'DATA'),
  ('resources\\img\\maps\\GB RPG Soldier FREE files\\GB RPG Soldier FREE '
   'files\\PUSH PULL\\GB_Soldier_PUSHPULL_SOUTH_strip4.png',
   'resources\\img\\maps\\GB RPG Soldier FREE files\\GB RPG Soldier FREE '
   'files\\PUSH PULL\\GB_Soldier_PUSHPULL_SOUTH_strip4.png',
   'DATA'),
  ('resources\\sounds\\music\\menu.wav',
   'resources\\sounds\\music\\menu.wav',
   'DATA'),
  ('resources\\img\\maps\\Tileset_16x16_2.png',
   'resources\\img\\maps\\Tileset_16x16_2.png',
   'DATA'),
  ('resources\\img\\backgrounds\\menu_background.jpg',
   'resources\\img\\backgrounds\\menu_background.jpg',
   'DATA'),
  ('data\\__pycache__\\sprite_sheet.cpython-38.pyc',
   'data\\__pycache__\\sprite_sheet.cpython-38.pyc',
   'DATA'),
  ('data\\__pycache__\\sprite_sheet.cpython-39.pyc',
   'data\\__pycache__\\sprite_sheet.cpython-39.pyc',
   'DATA'),
  ('resources\\img\\maps\\GB RPG Soldier FREE files\\GB RPG Soldier FREE '
   'files\\JUMP single frames\\GB_Soldier_JUMP_EAST.png',
   'resources\\img\\maps\\GB RPG Soldier FREE files\\GB RPG Soldier FREE '
   'files\\JUMP single frames\\GB_Soldier_JUMP_EAST.png',
   'DATA'),
  ('data\\__pycache__\\dialogue.cpython-39.pyc',
   'data\\__pycache__\\dialogue.cpython-39.pyc',
   'DATA'),
  ('resources\\img\\maps\\colored_transparent.png',
   'resources\\img\\maps\\colored_transparent.png',
   'DATA'),
  ('pygame_menu\\resources\\fonts\\LICENSE_PTSERIF.txt',
   'C:\\Users\\Manu\\venv\\Lib\\site-packages\\pygame_menu\\resources\\fonts\\LICENSE_PTSERIF.txt',
   'DATA'),
  ('resources\\img\\maps\\GB RPG Soldier FREE files\\GB RPG Soldier FREE '
   'files\\WALK\\GB_Soldier_WALK_EAST_strip4.png',
   'resources\\img\\maps\\GB RPG Soldier FREE files\\GB RPG Soldier FREE '
   'files\\WALK\\GB_Soldier_WALK_EAST_strip4.png',
   'DATA'),
  ('resources\\img\\maps\\GB RPG Soldier FREE files\\GB RPG Soldier FREE '
   'files\\PUSH PULL\\GB_Soldier_PUSHPULL_EAST_strip4.png',
   'resources\\img\\maps\\GB RPG Soldier FREE files\\GB RPG Soldier FREE '
   'files\\PUSH PULL\\GB_Soldier_PUSHPULL_EAST_strip4.png',
   'DATA'),
  ('resources\\img\\maps\\Tileset_16x16_9.png',
   'resources\\img\\maps\\Tileset_16x16_9.png',
   'DATA'),
  ('resources\\img\\maps\\GB RPG Soldier FREE files\\GB RPG Soldier FREE '
   'files\\JUMP single frames\\GB_Soldier_JUMP_NORTH.png',
   'resources\\img\\maps\\GB RPG Soldier FREE files\\GB RPG Soldier FREE '
   'files\\JUMP single frames\\GB_Soldier_JUMP_NORTH.png',
   'DATA'),
  ('resources\\img\\maps\\GB RPG Soldier FREE files\\GB RPG Soldier FREE '
   'files\\PUSH PULL\\GB_Soldier_PUSHPULL_WEST_strip4.png',
   'resources\\img\\maps\\GB RPG Soldier FREE files\\GB RPG Soldier FREE '
   'files\\PUSH PULL\\GB_Soldier_PUSHPULL_WEST_strip4.png',
   'DATA'),
  ('resources\\img\\carpentry\\backpack_test.png',
   'resources\\img\\carpentry\\backpack_test.png',
   'DATA'),
  ('data\\__pycache__\\textbox.cpython-38.pyc',
   'data\\__pycache__\\textbox.cpython-38.pyc',
   'DATA'),
  ('resources\\img\\carpentry\\flashlight.png',
   'resources\\img\\carpentry\\flashlight.png',
   'DATA'),
  ('resources\\img\\carpentry\\jacke.png',
   'resources\\img\\carpentry\\jacke.png',
   'DATA'),
  ('resources\\img\\maps\\way_to_con_camp.tmx',
   'resources\\img\\maps\\way_to_con_camp.tmx',
   'DATA'),
  ('resources\\fonts\\opensans_regular.ttf',
   'resources\\fonts\\opensans_regular.ttf',
   'DATA'),
  ('data\\__pycache__\\texts.cpython-38.pyc',
   'data\\__pycache__\\texts.cpython-38.pyc',
   'DATA'),
  ('resources\\img\\maps\\GB RPG Soldier FREE files\\GB RPG Soldier FREE '
   'files\\JUMP single frames\\GB_Soldier_JUMP_SOUTH.png',
   'resources\\img\\maps\\GB RPG Soldier FREE files\\GB RPG Soldier FREE '
   'files\\JUMP single frames\\GB_Soldier_JUMP_SOUTH.png',
   'DATA'),
  ('data\\__pycache__\\buttons.cpython-39.pyc',
   'data\\__pycache__\\buttons.cpython-39.pyc',
   'DATA'),
  ('resources\\img\\maps\\GB RPG Soldier FREE files\\GB RPG Soldier FREE '
   'files\\ATTACK KICK single frames\\GB_Soldier_ATTACKKICK_SOUTH.png',
   'resources\\img\\maps\\GB RPG Soldier FREE files\\GB RPG Soldier FREE '
   'files\\ATTACK KICK single frames\\GB_Soldier_ATTACKKICK_SOUTH.png',
   'DATA'),
  ('resources\\img\\maps\\GB RPG Soldier FREE files\\GB RPG Soldier FREE '
   'files\\AVATARS\\GB_Soldier_AVATAR_ANGRY.png',
   'resources\\img\\maps\\GB RPG Soldier FREE files\\GB RPG Soldier FREE '
   'files\\AVATARS\\GB_Soldier_AVATAR_ANGRY.png',
   'DATA'),
  ('data\\menus\\__pycache__\\scenario_menu.cpython-39.pyc',
   'data\\menus\\__pycache__\\scenario_menu.cpython-39.pyc',
   'DATA'),
  ('data\\__pycache__\\paths.cpython-39.pyc',
   'data\\__pycache__\\paths.cpython-39.pyc',
   'DATA'),
  ('resources\\img\\maps\\GB RPG Soldier FREE files\\GB RPG Soldier FREE '
   'files\\RUN\\GB_Soldier_RUN_NORTH_strip4.png',
   'resources\\img\\maps\\GB RPG Soldier FREE files\\GB RPG Soldier FREE '
   'files\\RUN\\GB_Soldier_RUN_NORTH_strip4.png',
   'DATA'),
  ('data\\menus\\__pycache__\\attribute_menus.cpython-38.pyc',
   'data\\menus\\__pycache__\\attribute_menus.cpython-38.pyc',
   'DATA'),
  ('data\\texts.py', 'data\\texts.py', 'DATA'),
  ('data\\menus\\__pycache__\\char_selection_menus.cpython-38.pyc',
   'data\\menus\\__pycache__\\char_selection_menus.cpython-38.pyc',
   'DATA'),
  ('resources\\img\\maps\\GB RPG Soldier FREE files\\GB RPG Soldier FREE '
   'files\\WALK\\GB_Soldier_WALK_SOUTH_strip4.png',
   'resources\\img\\maps\\GB RPG Soldier FREE files\\GB RPG Soldier FREE '
   'files\\WALK\\GB_Soldier_WALK_SOUTH_strip4.png',
   'DATA'),
  ('data\\__pycache__\\ptext.cpython-39.pyc',
   'data\\__pycache__\\ptext.cpython-39.pyc',
   'DATA'),
  ('resources\\img\\backgrounds\\schreinerei.jpg',
   'resources\\img\\backgrounds\\schreinerei.jpg',
   'DATA'),
  ('resources\\img\\portraits\\Icons_15.png',
   'resources\\img\\portraits\\Icons_15.png',
   'DATA'),
  ('data\\__pycache__\\__init__.cpython-39.pyc',
   'data\\__pycache__\\__init__.cpython-39.pyc',
   'DATA'),
  ('resources\\img\\maps\\AA.tsx', 'resources\\img\\maps\\AA.tsx', 'DATA'),
  ('resources\\img\\maps\\GB RPG Soldier FREE files\\GB RPG Soldier FREE '
   'files\\CLIMB\\GB_Soldier_CLIMB_NORTH_strip4.png',
   'resources\\img\\maps\\GB RPG Soldier FREE files\\GB RPG Soldier FREE '
   'files\\CLIMB\\GB_Soldier_CLIMB_NORTH_strip4.png',
   'DATA'),
  ('resources\\tsx\\colored_transparent.tsx',
   'resources\\tsx\\colored_transparent.tsx',
   'DATA'),
  ('resources\\img\\portraits\\Icons_16.png',
   'resources\\img\\portraits\\Icons_16.png',
   'DATA'),
  ('data\\__init__.py', 'data\\__init__.py', 'DATA'),
  ('data\\menus\\__pycache__\\menus.cpython-39.pyc',
   'data\\menus\\__pycache__\\menus.cpython-39.pyc',
   'DATA'),
  ('data\\__pycache__\\ptext.cpython-38.pyc',
   'data\\__pycache__\\ptext.cpython-38.pyc',
   'DATA'),
  ('resources\\img\\maps\\GB RPG Soldier FREE files\\GB RPG Soldier FREE '
   'files\\CLIMB\\GB_Soldier_CLIMB_SOUTH_strip4.png',
   'resources\\img\\maps\\GB RPG Soldier FREE files\\GB RPG Soldier FREE '
   'files\\CLIMB\\GB_Soldier_CLIMB_SOUTH_strip4.png',
   'DATA'),
  ('data\\__pycache__\\texts.cpython-39.pyc',
   'data\\__pycache__\\texts.cpython-39.pyc',
   'DATA'),
  ('resources\\img\\pngcrush.exe', 'resources\\img\\pngcrush.exe', 'DATA'),
  ('resources\\img\\maps\\attic.tmx',
   'resources\\img\\maps\\attic.tmx',
   'DATA'),
  ('resources\\img\\maps\\GB RPG Soldier FREE files\\GB RPG Soldier FREE '
   'files\\ATTACK PUNCH\\GB_Soldier_ATTACKPUNCH_SOUTH.png',
   'resources\\img\\maps\\GB RPG Soldier FREE files\\GB RPG Soldier FREE '
   'files\\ATTACK PUNCH\\GB_Soldier_ATTACKPUNCH_SOUTH.png',
   'DATA'),
  ('resources\\img\\clothing_event\\sturmabteilung_einzel.png',
   'resources\\img\\clothing_event\\sturmabteilung_einzel.png',
   'DATA'),
  ('resources\\img\\maps\\GB_Soldier_IDLE_WEST_strip4.tsx',
   'resources\\img\\maps\\GB_Soldier_IDLE_WEST_strip4.tsx',
   'DATA'),
  ('resources\\img\\backgrounds\\quiz_bg.jpg',
   'resources\\img\\backgrounds\\quiz_bg.jpg',
   'DATA'),
  ('resources\\img\\maps\\tilemap.png',
   'resources\\img\\maps\\tilemap.png',
   'DATA'),
  ('data\\menus\\main_menu.py', 'data\\menus\\main_menu.py', 'DATA'),
  ('resources\\sounds\\rpg_sound_pack.zip',
   'resources\\sounds\\rpg_sound_pack.zip',
   'DATA'),
  ('data\\__pycache__\\dialogue.cpython-38.pyc',
   'data\\__pycache__\\dialogue.cpython-38.pyc',
   'DATA'),
  ('resources\\img\\maps\\GB RPG Soldier FREE files\\GB RPG Soldier FREE '
   'files\\PICK UP single frames\\GB_Soldier_PICKUP_WEST.png',
   'resources\\img\\maps\\GB RPG Soldier FREE files\\GB RPG Soldier FREE '
   'files\\PICK UP single frames\\GB_Soldier_PICKUP_WEST.png',
   'DATA'),
  ('data\\__pycache__\\player.cpython-36.pyc',
   'data\\__pycache__\\player.cpython-36.pyc',
   'DATA'),
  ('resources\\img\\maps\\GB RPG Soldier FREE files\\GB RPG Soldier FREE '
   'files\\HIT HURT single frames\\GB_Soldier_HITHURT_NORTH.png',
   'resources\\img\\maps\\GB RPG Soldier FREE files\\GB RPG Soldier FREE '
   'files\\HIT HURT single frames\\GB_Soldier_HITHURT_NORTH.png',
   'DATA'),
  ('data\\__pycache__\\game1933.cpython-39.pyc',
   'data\\__pycache__\\game1933.cpython-39.pyc',
   'DATA'),
  ('resources\\img\\backgrounds\\veggie_store.jpg',
   'resources\\img\\backgrounds\\veggie_store.jpg',
   'DATA'),
  ('resources\\img\\maps\\con_camp.tmx',
   'resources\\img\\maps\\con_camp.tmx',
   'DATA'),
  ('resources\\img\\maps\\GB RPG Soldier FREE files\\GB RPG Soldier FREE '
   'files\\ATTACK PUNCH\\GB_Soldier_ATTACKPUNCH_EAST.png',
   'resources\\img\\maps\\GB RPG Soldier FREE files\\GB RPG Soldier FREE '
   'files\\ATTACK PUNCH\\GB_Soldier_ATTACKPUNCH_EAST.png',
   'DATA'),
  ('resources\\img\\maps\\GB RPG Soldier FREE files\\GB RPG Soldier FREE '
   'files\\IDLE\\GB_Soldier_IDLE_WEST_strip4.png',
   'resources\\img\\maps\\GB RPG Soldier FREE files\\GB RPG Soldier FREE '
   'files\\IDLE\\GB_Soldier_IDLE_WEST_strip4.png',
   'DATA'),
  ('data\\menus\\__pycache__\\attribute_menus.cpython-39.pyc',
   'data\\menus\\__pycache__\\attribute_menus.cpython-39.pyc',
   'DATA'),
  ('resources\\img\\backgrounds\\dachboden.jpg',
   'resources\\img\\backgrounds\\dachboden.jpg',
   'DATA'),
  ('resources\\img\\portraits\\elias_dad.png',
   'resources\\img\\portraits\\elias_dad.png',
   'DATA'),
  ('resources\\img\\maps\\GB RPG Soldier FREE files\\GB RPG Soldier FREE '
   'files\\CLIMB\\GB_Soldier_CLIMB_WEST_strip4.png',
   'resources\\img\\maps\\GB RPG Soldier FREE files\\GB RPG Soldier FREE '
   'files\\CLIMB\\GB_Soldier_CLIMB_WEST_strip4.png',
   'DATA'),
  ('resources\\img\\maps\\start.tmx',
   'resources\\img\\maps\\start.tmx',
   'DATA'),
  ('data\\buttons.py', 'data\\buttons.py', 'DATA'),
  ('resources\\img\\maps\\GB RPG Soldier FREE files\\GB RPG Soldier FREE '
   'files\\PUSH PULL\\GB_Soldier_PUSHPULL_NORTH_strip4.png',
   'resources\\img\\maps\\GB RPG Soldier FREE files\\GB RPG Soldier FREE '
   'files\\PUSH PULL\\GB_Soldier_PUSHPULL_NORTH_strip4.png',
   'DATA'),
  ('pygame_menu\\resources\\fonts\\LICENSE_OPENSANS.txt',
   'C:\\Users\\Manu\\venv\\Lib\\site-packages\\pygame_menu\\resources\\fonts\\LICENSE_OPENSANS.txt',
   'DATA'),
  ('resources\\img\\carpentry\\elias_mama.png',
   'resources\\img\\carpentry\\elias_mama.png',
   'DATA'),
  ('resources\\img\\portraits\\Icons_33.png',
   'resources\\img\\portraits\\Icons_33.png',
   'DATA'),
  ('data\\__pycache__\\__init__.cpython-38.pyc',
   'data\\__pycache__\\__init__.cpython-38.pyc',
   'DATA'),
  ('resources\\img\\maps\\GB RPG Soldier FREE files\\GB RPG Soldier FREE '
   'files\\CLIMB\\GB_Soldier_CLIMB_EAST_strip4.png',
   'resources\\img\\maps\\GB RPG Soldier FREE files\\GB RPG Soldier FREE '
   'files\\CLIMB\\GB_Soldier_CLIMB_EAST_strip4.png',
   'DATA'),
  ('resources\\img\\maps\\GB RPG Soldier FREE files\\GB RPG Soldier FREE '
   'files\\HIT HURT single frames\\GB_Soldier_HITHURT_SOUTH.png',
   'resources\\img\\maps\\GB RPG Soldier FREE files\\GB RPG Soldier FREE '
   'files\\HIT HURT single frames\\GB_Soldier_HITHURT_SOUTH.png',
   'DATA'),
  ('data\\sprite_sheet.py', 'data\\sprite_sheet.py', 'DATA'),
  ('data\\ptext.py', 'data\\ptext.py', 'DATA'),
  ('resources\\img\\maps\\sprites.json',
   'resources\\img\\maps\\sprites.json',
   'DATA'),
  ('data\\menus\\menus.py', 'data\\menus\\menus.py', 'DATA'),
  ('resources\\img\\portraits\\klaus_portrait.png',
   'resources\\img\\portraits\\klaus_portrait.png',
   'DATA'),
  ('data\\game1933.py', 'data\\game1933.py', 'DATA'),
  ('data\\__pycache__\\player.cpython-39.pyc',
   'data\\__pycache__\\player.cpython-39.pyc',
   'DATA'),
  ('data\\__pycache__\\textbox.cpython-39.pyc',
   'data\\__pycache__\\textbox.cpython-39.pyc',
   'DATA'),
  ('resources\\sounds\\music\\game_start.mp3',
   'resources\\sounds\\music\\game_start.mp3',
   'DATA'),
  ('resources\\img\\maps\\Tileset_16x16_3.png',
   'resources\\img\\maps\\Tileset_16x16_3.png',
   'DATA'),
  ('resources\\img\\maps\\GB RPG Soldier FREE files\\GB RPG Soldier FREE '
   'files\\NES_Soldier_FREE_SpriteSheet.png',
   'resources\\img\\maps\\GB RPG Soldier FREE files\\GB RPG Soldier FREE '
   'files\\NES_Soldier_FREE_SpriteSheet.png',
   'DATA'),
  ('data\\menus\\attribute_menus.py',
   'data\\menus\\attribute_menus.py',
   'DATA'),
  ('resources\\img\\maps\\world_map.tsx',
   'resources\\img\\maps\\world_map.tsx',
   'DATA'),
  ('resources\\img\\maps\\GB RPG Soldier FREE files\\GB RPG Soldier FREE '
   'files\\WALK\\GB_Soldier_WALK_NORTH_strip4.png',
   'resources\\img\\maps\\GB RPG Soldier FREE files\\GB RPG Soldier FREE '
   'files\\WALK\\GB_Soldier_WALK_NORTH_strip4.png',
   'DATA'),
  ('data\\menus\\__pycache__\\__init__.cpython-39.pyc',
   'data\\menus\\__pycache__\\__init__.cpython-39.pyc',
   'DATA'),
  ('resources\\img\\clothing_event\\schutzstaffel_einzel.png',
   'resources\\img\\clothing_event\\schutzstaffel_einzel.png',
   'DATA'),
  ('resources\\img\\maps\\Tileset_16x16_16.png',
   'resources\\img\\maps\\Tileset_16x16_16.png',
   'DATA'),
  ('data\\dialogue.py', 'data\\dialogue.py', 'DATA'),
  ('resources\\img\\portraits\\Icons_14.png',
   'resources\\img\\portraits\\Icons_14.png',
   'DATA'),
  ('resources\\img\\portraits\\Icons_18.png',
   'resources\\img\\portraits\\Icons_18.png',
   'DATA'),
  ('resources\\img\\backgrounds\\snow_bg.jpg',
   'resources\\img\\backgrounds\\snow_bg.jpg',
   'DATA'),
  ('resources\\img\\maps\\GB RPG Soldier FREE files\\GB RPG Soldier FREE '
   'files\\GB_Soldier_LIFE_ITEMS1.png',
   'resources\\img\\maps\\GB RPG Soldier FREE files\\GB RPG Soldier FREE '
   'files\\GB_Soldier_LIFE_ITEMS1.png',
   'DATA'),
  ('resources\\img\\maps\\GB RPG Soldier FREE files\\GB RPG Soldier FREE '
   'files\\WALK\\GB_Soldier_WALK_WEST_strip4.png',
   'resources\\img\\maps\\GB RPG Soldier FREE files\\GB RPG Soldier FREE '
   'files\\WALK\\GB_Soldier_WALK_WEST_strip4.png',
   'DATA'),
  ('resources\\img\\clothing_event\\schutzstaffel.png',
   'resources\\img\\clothing_event\\schutzstaffel.png',
   'DATA'),
  ('resources\\img\\maps\\carpentry.tmx',
   'resources\\img\\maps\\carpentry.tmx',
   'DATA'),
  ('resources\\img\\maps\\GB RPG Soldier FREE files\\GB RPG Soldier FREE '
   'files\\IDLE\\GB_Soldier_IDLE_EAST_strip4.png',
   'resources\\img\\maps\\GB RPG Soldier FREE files\\GB RPG Soldier FREE '
   'files\\IDLE\\GB_Soldier_IDLE_EAST_strip4.png',
   'DATA'),
  ('resources\\img\\maps\\GB RPG Soldier FREE files\\GB RPG Soldier FREE '
   'files\\RUN\\GB_Soldier_RUN_WEST_strip4.png',
   'resources\\img\\maps\\GB RPG Soldier FREE files\\GB RPG Soldier FREE '
   'files\\RUN\\GB_Soldier_RUN_WEST_strip4.png',
   'DATA'),
  ('data\\map.py', 'data\\map.py', 'DATA'),
  ('resources\\img\\backgrounds\\verordnung.jpg',
   'resources\\img\\backgrounds\\verordnung.jpg',
   'DATA'),
  ('data\\player.py', 'data\\player.py', 'DATA'),
  ('resources\\img\\carpentry\\0350-1_fototapete_landkarte_europa_schwarz_weiss.jpg',
   'resources\\img\\carpentry\\0350-1_fototapete_landkarte_europa_schwarz_weiss.jpg',
   'DATA'),
  ('resources\\img\\backgrounds\\elias_dad_house.jpg',
   'resources\\img\\backgrounds\\elias_dad_house.jpg',
   'DATA'),
  ('resources\\img\\maps\\GB RPG Soldier FREE files\\GB RPG Soldier FREE '
   'files\\HIT HURT single frames\\GB_Soldier_HITHURT_EAST.png',
   'resources\\img\\maps\\GB RPG Soldier FREE files\\GB RPG Soldier FREE '
   'files\\HIT HURT single frames\\GB_Soldier_HITHURT_EAST.png',
   'DATA'),
  ('resources\\img\\maps\\GB_Soldier_SOUTH_strip4.tsx',
   'resources\\img\\maps\\GB_Soldier_SOUTH_strip4.tsx',
   'DATA'),
  ('resources\\img\\maps\\elias_mum.tsx',
   'resources\\img\\maps\\elias_mum.tsx',
   'DATA'),
  ('data\\__pycache__\\quiz.cpython-38.pyc',
   'data\\__pycache__\\quiz.cpython-38.pyc',
   'DATA'),
  ('resources\\img\\maps\\GB RPG Soldier FREE files\\GB RPG Soldier FREE '
   'files\\PICK UP single frames\\GB_Soldier_PICKUP_NORTH.png',
   'resources\\img\\maps\\GB RPG Soldier FREE files\\GB RPG Soldier FREE '
   'files\\PICK UP single frames\\GB_Soldier_PICKUP_NORTH.png',
   'DATA'),
  ('data\\menus\\scenario_menu.py', 'data\\menus\\scenario_menu.py', 'DATA'),
  ('resources\\img\\maps\\background_attic.tsx',
   'resources\\img\\maps\\background_attic.tsx',
   'DATA'),
  ('resources\\img\\portraits\\Icons_17.png',
   'resources\\img\\portraits\\Icons_17.png',
   'DATA'),
  ('data\\utils.py', 'data\\utils.py', 'DATA'),
  ('data\\menus\\__pycache__\\menus.cpython-38.pyc',
   'data\\menus\\__pycache__\\menus.cpython-38.pyc',
   'DATA'),
  ('data\\__pycache__\\utils.cpython-39.pyc',
   'data\\__pycache__\\utils.cpython-39.pyc',
   'DATA'),
  ('resources\\img\\maps\\colored_transparent.tsx',
   'resources\\img\\maps\\colored_transparent.tsx',
   'DATA'),
  ('data\\quiz.py', 'data\\quiz.py', 'DATA'),
  ('data\\__pycache__\\player.cpython-38.pyc',
   'data\\__pycache__\\player.cpython-38.pyc',
   'DATA'),
  ('resources\\img\\portraits\\Icons_13.png',
   'resources\\img\\portraits\\Icons_13.png',
   'DATA'),
  ('resources\\img\\maps\\GB RPG Soldier FREE files\\GB RPG Soldier FREE '
   'files\\PICK UP single frames\\GB_Soldier_PICKUP_EAST.png',
   'resources\\img\\maps\\GB RPG Soldier FREE files\\GB RPG Soldier FREE '
   'files\\PICK UP single frames\\GB_Soldier_PICKUP_EAST.png',
   'DATA'),
  ('data\\paths.py', 'data\\paths.py', 'DATA'),
  ('data\\menus\\char_selection_menus.py',
   'data\\menus\\char_selection_menus.py',
   'DATA'),
  ('data\\menus\\__pycache__\\main_menu.cpython-38.pyc',
   'data\\menus\\__pycache__\\main_menu.cpython-38.pyc',
   'DATA'),
  ('resources\\img\\maps\\GB RPG Soldier FREE files\\GB RPG Soldier FREE '
   'files\\PICK UP single frames\\GB_Soldier_PICKUP_SOUTH.png',
   'resources\\img\\maps\\GB RPG Soldier FREE files\\GB RPG Soldier FREE '
   'files\\PICK UP single frames\\GB_Soldier_PICKUP_SOUTH.png',
   'DATA'),
  ('data\\menus\\__pycache__\\main_menu.cpython-39.pyc',
   'data\\menus\\__pycache__\\main_menu.cpython-39.pyc',
   'DATA'),
  ('resources\\img\\backgrounds\\verordnung_lesbar_2.png',
   'resources\\img\\backgrounds\\verordnung_lesbar_2.png',
   'DATA'),
  ('data\\menus\\__pycache__\\char_selection_menus.cpython-39.pyc',
   'data\\menus\\__pycache__\\char_selection_menus.cpython-39.pyc',
   'DATA'),
  ('resources\\img\\maps\\tilemap.tsx',
   'resources\\img\\maps\\tilemap.tsx',
   'DATA'),
  ('data\\__pycache__\\buttons.cpython-38.pyc',
   'data\\__pycache__\\buttons.cpython-38.pyc',
   'DATA'),
  ('data\\__pycache__\\public.cpython-36.pyc',
   'data\\__pycache__\\public.cpython-36.pyc',
   'DATA'),
  ('resources\\img\\maps\\jacket.tsx',
   'resources\\img\\maps\\jacket.tsx',
   'DATA'),
  ('data\\__pycache__\\quiz.cpython-39.pyc',
   'data\\__pycache__\\quiz.cpython-39.pyc',
   'DATA'),
  ('data\\__pycache__\\public.cpython-39.pyc',
   'data\\__pycache__\\public.cpython-39.pyc',
   'DATA'),
  ('resources\\img\\backgrounds\\verordnung_lesbar_1.png',
   'resources\\img\\backgrounds\\verordnung_lesbar_1.png',
   'DATA'),
  ('resources\\img\\maps\\GB RPG Soldier FREE files\\GB RPG Soldier FREE '
   'files\\ATTACK PUNCH\\GB_Soldier_ATTACKPUNCH_WEST.png',
   'resources\\img\\maps\\GB RPG Soldier FREE files\\GB RPG Soldier FREE '
   'files\\ATTACK PUNCH\\GB_Soldier_ATTACKPUNCH_WEST.png',
   'DATA'),
  ('resources\\img\\maps\\GB RPG Soldier FREE files\\GB RPG Soldier FREE '
   'files\\AVATARS\\GB_Soldier_AVATAR.png',
   'resources\\img\\maps\\GB RPG Soldier FREE files\\GB RPG Soldier FREE '
   'files\\AVATARS\\GB_Soldier_AVATAR.png',
   'DATA'),
  ('data\\menus\\__pycache__\\scenario_menu.cpython-38.pyc',
   'data\\menus\\__pycache__\\scenario_menu.cpython-38.pyc',
   'DATA'),
  ('data\\__pycache__\\public.cpython-38.pyc',
   'data\\__pycache__\\public.cpython-38.pyc',
   'DATA'),
  ('resources\\img\\maps\\GB RPG Soldier FREE files\\GB RPG Soldier FREE '
   'files\\ATTACK KICK single frames\\GB_Soldier_ATTACKKICK_EAST.png',
   'resources\\img\\maps\\GB RPG Soldier FREE files\\GB RPG Soldier FREE '
   'files\\ATTACK KICK single frames\\GB_Soldier_ATTACKKICK_EAST.png',
   'DATA'),
  ('resources\\img\\portraits\\elias_portrait.png',
   'resources\\img\\portraits\\elias_portrait.png',
   'DATA'),
  ('resources\\img\\clothing_event\\wehrmacht.png',
   'resources\\img\\clothing_event\\wehrmacht.png',
   'DATA'),
  ('resources\\img\\maps\\GB RPG Soldier FREE files\\GB RPG Soldier FREE '
   'files\\IDLE\\GB_Soldier_SOUTH_strip4.png',
   'resources\\img\\maps\\GB RPG Soldier FREE files\\GB RPG Soldier FREE '
   'files\\IDLE\\GB_Soldier_SOUTH_strip4.png',
   'DATA'),
  ('resources\\img\\clothing_event\\sturmabteilung.png',
   'resources\\img\\clothing_event\\sturmabteilung.png',
   'DATA'),
  ('resources\\sounds\\music\\veggiestore.mp3',
   'resources\\sounds\\music\\veggiestore.mp3',
   'DATA'),
  ('data\\__pycache__\\utils.cpython-38.pyc',
   'data\\__pycache__\\utils.cpython-38.pyc',
   'DATA'),
  ('resources\\img\\maps\\GB RPG Soldier FREE files\\GB RPG Soldier FREE '
   'files\\JUMP single frames\\GB_Soldier_JUMP_WEST.png',
   'resources\\img\\maps\\GB RPG Soldier FREE files\\GB RPG Soldier FREE '
   'files\\JUMP single frames\\GB_Soldier_JUMP_WEST.png',
   'DATA'),
  ('data\\__pycache__\\__init__.cpython-36.pyc',
   'data\\__pycache__\\__init__.cpython-36.pyc',
   'DATA'),
  ('resources\\img\\maps\\GB RPG Soldier FREE files\\GB RPG Soldier FREE '
   'files\\HIT HURT single frames\\GB_Soldier_HITHURT_WEST.png',
   'resources\\img\\maps\\GB RPG Soldier FREE files\\GB RPG Soldier FREE '
   'files\\HIT HURT single frames\\GB_Soldier_HITHURT_WEST.png',
   'DATA'),
  ('resources\\img\\clothing_event\\wehrmacht_einzel.png',
   'resources\\img\\clothing_event\\wehrmacht_einzel.png',
   'DATA'),
  ('resources\\img\\maps\\flashlight.tsx',
   'resources\\img\\maps\\flashlight.tsx',
   'DATA'),
  ('resources\\img\\maps\\GB RPG Soldier FREE files\\GB RPG Soldier FREE '
   'files\\ATTACK KICK single frames\\GB_Soldier_ATTACKKICK_NORTH.png',
   'resources\\img\\maps\\GB RPG Soldier FREE files\\GB RPG Soldier FREE '
   'files\\ATTACK KICK single frames\\GB_Soldier_ATTACKKICK_NORTH.png',
   'DATA'),
  ('data\\textbox.py', 'data\\textbox.py', 'DATA'),
  ('resources\\img\\maps\\GB_Soldier_IDLE_EAST_strip4.tsx',
   'resources\\img\\maps\\GB_Soldier_IDLE_EAST_strip4.tsx',
   'DATA'),
  ('data\\data.py', 'data\\data.py', 'DATA'),
  ('data\\menus\\__init__.py', 'data\\menus\\__init__.py', 'DATA'),
  ('resources\\img\\maps\\backpack.tsx',
   'resources\\img\\maps\\backpack.tsx',
   'DATA'),
  ('data\\public.py', 'data\\public.py', 'DATA'),
  ('data\\__pycache__\\game1933.cpython-38.pyc',
   'data\\__pycache__\\game1933.cpython-38.pyc',
   'DATA'),
  ('resources\\img\\portraits\\Icons_02.png',
   'resources\\img\\portraits\\Icons_02.png',
   'DATA'),
  ('resources\\img\\backgrounds\\dialoguebox.png',
   'resources\\img\\backgrounds\\dialoguebox.png',
   'DATA'),
  ('resources\\img\\portraits\\klaus.png',
   'resources\\img\\portraits\\klaus.png',
   'DATA'),
  ('resources\\img\\maps\\GB_Soldier_IDLE_NORTH_strip4.tsx',
   'resources\\img\\maps\\GB_Soldier_IDLE_NORTH_strip4.tsx',
   'DATA')],)
